Tercero/Diseño_Procesadores/Actividad_1_CPU_Monociclo/cpu_tb.vcd
$date
	Wed Apr  7 11:31:39 2021
$end
$version
	Icarus Verilog
$end
$timescale
	10ps
$end
$scope module cpu_tb $end
$var wire 8 ! out4 [7:0] $end
$var wire 8 " out3 [7:0] $end
$var wire 8 # out2 [7:0] $end
$var wire 8 $ out1 [7:0] $end
$var reg 1 % clk $end
$var reg 8 & in1 [7:0] $end
$var reg 8 ' in2 [7:0] $end
$var reg 1 ( intr1 $end
$var reg 1 ) intr2 $end
$var reg 1 * reset $end
$scope module micpu $end
$var wire 1 % clk $end
$var wire 8 + in1 [7:0] $end
$var wire 8 , in2 [7:0] $end
$var wire 1 ( intr1 $end
$var wire 1 ) intr2 $end
$var wire 1 * reset $end
$var wire 1 - z $end
$var wire 1 . wez $end
$var wire 1 / we_out $end
$var wire 1 0 we4 $end
$var wire 1 1 we3 $end
$var wire 1 2 s_stack $end
$var wire 2 3 s_out [1:0] $end
$var wire 2 4 s_inm [1:0] $end
$var wire 1 5 s_inc $end
$var wire 2 6 s_in [1:0] $end
$var wire 1 7 push $end
$var wire 1 8 pop $end
$var wire 8 9 out4 [7:0] $end
$var wire 8 : out3 [7:0] $end
$var wire 8 ; out2 [7:0] $end
$var wire 8 < out1 [7:0] $end
$var wire 16 = opcode [15:0] $end
$var wire 3 > op_alu [2:0] $end
$scope module camino_datos $end
$var wire 1 % clk $end
$var wire 8 ? in1 [7:0] $end
$var wire 8 @ in2 [7:0] $end
$var wire 1 A or_push $end
$var wire 1 B rege1 $end
$var wire 1 C rege2 $end
$var wire 1 D rege3 $end
$var wire 1 E rege4 $end
$var wire 1 * reset $end
$var wire 1 F s_intr $end
$var wire 1 ( s_intr1 $end
$var wire 1 ) s_intr2 $end
$var wire 1 G s_pc $end
$var wire 10 H salida_int1_reg [9:0] $end
$var wire 10 I salida_int2_reg [9:0] $end
$var wire 1 J temp1 $end
$var wire 1 K temp2 $end
$var wire 1 - z $end
$var wire 1 . wez $end
$var wire 1 / we_out $end
$var wire 1 0 we4 $end
$var wire 1 1 we3 $end
$var wire 10 L salida_sumador [9:0] $end
$var wire 10 M salida_pila [9:0] $end
$var wire 10 N salida_mux_stack [9:0] $end
$var wire 10 O salida_mux_pc [9:0] $end
$var wire 8 P salida_mux_out [7:0] $end
$var wire 10 Q salida_mux_intr [9:0] $end
$var wire 8 R salida_mux_inm [7:0] $end
$var wire 10 S salida_mux_inc [9:0] $end
$var wire 16 T salida_memoria_programa [15:0] $end
$var wire 8 U salida_memoria_datos [7:0] $end
$var wire 10 V salida_contador_programa [9:0] $end
$var wire 8 W salida_alu [7:0] $end
$var wire 1 2 s_stack $end
$var wire 2 X s_out [1:0] $end
$var wire 2 Y s_inm [1:0] $end
$var wire 1 5 s_inc $end
$var wire 2 Z s_in [1:0] $end
$var wire 8 [ rd2 [7:0] $end
$var wire 8 \ rd1 [7:0] $end
$var wire 1 7 pushsignal $end
$var wire 1 8 popsignal $end
$var wire 1 ] out_timer $end
$var wire 8 ^ out4 [7:0] $end
$var wire 8 _ out3 [7:0] $end
$var wire 8 ` out2 [7:0] $end
$var wire 8 a out1 [7:0] $end
$var wire 16 b opcode [15:0] $end
$var wire 3 c op_alu [2:0] $end
$var wire 8 d entrada_io [7:0] $end
$var wire 1 e entrada_ffz $end
$var wire 1 f d3 $end
$var wire 1 g d2 $end
$var wire 1 h d1 $end
$var wire 1 i d0 $end
$var reg 3 j base [2:0] $end
$var reg 4 k umbral [3:0] $end
$scope module banco_registros $end
$var wire 1 % clk $end
$var wire 4 l ra1 [3:0] $end
$var wire 4 m ra2 [3:0] $end
$var wire 4 n wa3 [3:0] $end
$var wire 1 1 we3 $end
$var wire 8 o wd3 [7:0] $end
$var wire 8 p rd2 [7:0] $end
$var wire 8 q rd1 [7:0] $end
$upscope $end
$scope module contador_programa $end
$var wire 1 % clk $end
$var wire 1 * reset $end
$var wire 10 r d [9:0] $end
$var reg 10 s q [9:0] $end
$upscope $end
$scope module custom_timer $end
$var wire 3 t base [2:0] $end
$var wire 1 % clk $end
$var wire 1 * reset $end
$var wire 4 u umbral [3:0] $end
$var reg 10 v counter [9:0] $end
$var reg 10 w divisor [9:0] $end
$var reg 1 ] out_timer $end
$var reg 4 x umbral_aux [3:0] $end
$upscope $end
$scope module deco_out $end
$var wire 1 i d0 $end
$var wire 1 h d1 $end
$var wire 1 g d2 $end
$var wire 1 f d3 $end
$var wire 2 y in [1:0] $end
$upscope $end
$scope module ffz $end
$var wire 1 % clk $end
$var wire 1 * reset $end
$var wire 1 e d $end
$var wire 1 . carga $end
$var reg 1 - q $end
$upscope $end
$scope module in $end
$var wire 8 z d0 [7:0] $end
$var wire 8 { d1 [7:0] $end
$var wire 8 | d2 [7:0] $end
$var wire 8 } d3 [7:0] $end
$var wire 2 ~ s [1:0] $end
$var reg 8 !" y [7:0] $end
$upscope $end
$scope module inc $end
$var wire 10 "" d0 [9:0] $end
$var wire 10 #" y [9:0] $end
$var wire 1 5 s $end
$var wire 10 $" d1 [9:0] $end
$upscope $end
$scope module inm $end
$var wire 8 %" d1 [7:0] $end
$var wire 8 &" d3 [7:0] $end
$var wire 2 '" s [1:0] $end
$var wire 8 (" d2 [7:0] $end
$var wire 8 )" d0 [7:0] $end
$var reg 8 *" y [7:0] $end
$upscope $end
$scope module int1_reg $end
$var wire 10 +" out [9:0] $end
$upscope $end
$scope module int2_reg $end
$var wire 10 ," out [9:0] $end
$upscope $end
$scope module memoria_datos $end
$var wire 1 % clk $end
$var wire 12 -" ra [11:0] $end
$var wire 8 ." wd4 [7:0] $end
$var wire 1 0 we4 $end
$var wire 8 /" rd1 [7:0] $end
$upscope $end
$scope module memoria_programa $end
$var wire 10 0" a [9:0] $end
$var wire 1 % clk $end
$var wire 16 1" rd [15:0] $end
$upscope $end
$scope module mux_intr $end
$var wire 10 2" d0 [9:0] $end
$var wire 10 3" d1 [9:0] $end
$var wire 1 F s $end
$var wire 10 4" y [9:0] $end
$upscope $end
$scope module mux_pc $end
$var wire 10 5" d1 [9:0] $end
$var wire 1 G s $end
$var wire 10 6" y [9:0] $end
$var wire 10 7" d0 [9:0] $end
$upscope $end
$scope module mux_stack $end
$var wire 10 8" d0 [9:0] $end
$var wire 10 9" y [9:0] $end
$var wire 1 2 s $end
$var wire 10 :" d1 [9:0] $end
$upscope $end
$scope module out $end
$var wire 8 ;" d0 [7:0] $end
$var wire 8 <" d1 [7:0] $end
$var wire 8 =" d2 [7:0] $end
$var wire 8 >" d3 [7:0] $end
$var wire 2 ?" s [1:0] $end
$var reg 8 @" y [7:0] $end
$upscope $end
$scope module pila $end
$var wire 1 % clk $end
$var wire 10 A" push [9:0] $end
$var wire 1 A pushsignal $end
$var wire 1 * reset $end
$var wire 1 8 popsignal $end
$var reg 10 B" pop [9:0] $end
$var reg 3 C" stack_pointer [2:0] $end
$upscope $end
$scope module reg1_out $end
$var wire 1 B clk $end
$var wire 8 D" d [7:0] $end
$var wire 1 * reset $end
$var reg 8 E" q [7:0] $end
$upscope $end
$scope module reg2_out $end
$var wire 1 C clk $end
$var wire 8 F" d [7:0] $end
$var wire 1 * reset $end
$var reg 8 G" q [7:0] $end
$upscope $end
$scope module reg3_out $end
$var wire 1 D clk $end
$var wire 8 H" d [7:0] $end
$var wire 1 * reset $end
$var reg 8 I" q [7:0] $end
$upscope $end
$scope module reg4_out $end
$var wire 1 E clk $end
$var wire 8 J" d [7:0] $end
$var wire 1 * reset $end
$var reg 8 K" q [7:0] $end
$upscope $end
$scope module sumador $end
$var wire 10 L" a [9:0] $end
$var wire 10 M" b [9:0] $end
$var wire 10 N" y [9:0] $end
$upscope $end
$scope module unidad_alu $end
$var wire 8 O" a [7:0] $end
$var wire 8 P" b [7:0] $end
$var wire 8 Q" y [7:0] $end
$var wire 1 e zero $end
$var wire 3 R" op_alu [2:0] $end
$var reg 8 S" s [7:0] $end
$upscope $end
$upscope $end
$scope module unidad_control $end
$var wire 1 ( intr1 $end
$var wire 1 ) intr2 $end
$var wire 16 T" opcode [15:0] $end
$var wire 1 - z $end
$var reg 3 U" op_alu [2:0] $end
$var reg 1 8 pop $end
$var reg 1 7 push $end
$var reg 2 V" s_in [1:0] $end
$var reg 1 5 s_inc $end
$var reg 2 W" s_inm [1:0] $end
$var reg 2 X" s_out [1:0] $end
$var reg 1 2 s_stack $end
$var reg 1 1 we3 $end
$var reg 1 0 we4 $end
$var reg 1 / we_out $end
$var reg 1 . wez $end
$upscope $end
$upscope $end
$upscope $end
$enddefinitions $end
#0
$dumpvars
bx X"
b11 W"
b0 V"
b0 U"
b101010 T"
b0 S"
b0 R"
b0 Q"
b0 P"
b0 O"
b1 N"
b0 M"
b1 L"
b0 K"
bx J"
b0 I"
bx H"
b0 G"
bx F"
b0 E"
bx D"
b0 C"
bx B"
b1 A"
bx @"
bx ?"
bz >"
bz ="
b0 <"
b0 ;"
bx :"
b1 9"
b1 8"
b1 7"
b1 6"
b1010 5"
b1010 4"
b1010 3"
b1000 2"
b1010100000000011 1"
b0 0"
b0 /"
b0 ."
b100000000011 -"
b1010 ,"
b1000 +"
bx *"
b0 )"
b0 ("
b11 '"
bx &"
b10000000 %"
b1 $"
b1 #"
b11 ""
bx !"
b0 ~
bz }
bz |
bx {
bx z
b11 y
b0 x
b1000100000 w
b1 v
b1 u
b100 t
b0 s
b1 r
b0 q
b0 p
bx o
b11 n
b0 m
b1000 l
b1 k
b100 j
0i
0h
0g
1f
1e
bx d
b0 c
b101010 b
b0 a
b0 `
b0 _
b0 ^
1]
b0 \
b0 [
b0 Z
b11 Y
bx X
b0 W
b0 V
b0 U
b1010100000000011 T
b1 S
bx R
b1010 Q
bx P
b1 O
b1 N
bx M
b1 L
0K
1J
b1010 I
b1000 H
0G
1F
0E
0D
0C
0B
0A
bx @
bx ?
b0 >
b101010 =
b0 <
b0 ;
b0 :
b0 9
08
07
b0 6
15
b11 4
bx 3
02
11
00
0/
0.
0-
bx ,
bx +
1*
0)
0(
bx '
bx &
1%
b0 $
b0 #
b0 "
b0 !
$end
#1000
0*
#2500
0%
#4000
b1000 Q
b1000 4"
b1000 5"
0F
b1 C"
b1000 O
b1000 r
b1000 6"
0J
1A
1G
1(
#5000
b0 R
b0 o
b0 *"
1i
0f
b0 4
b0 Y
b0 '"
b0 W"
1.
b1001 N
b1001 7"
b1001 9"
b1001 A"
b0 y
b0 -"
b0 %"
b0 n
b0 l
b0 =
b0 b
b0 T"
b0 ""
b1001 S
b1001 #"
b1001 8"
b10 v
b0 T
b0 1"
b1001 L
b1001 $"
b1001 N"
b1000 V
b1000 s
b1000 0"
b1000 M"
0]
1%
#7500
0%
#8000
b1010 Q
b1010 4"
b1010 5"
1F
b1001 O
b1001 r
b1001 6"
1J
0A
0G
0(
#10000
b1010 O
b1010 r
b1010 6"
b1010 N
b1010 7"
b1010 9"
b1010 A"
b1010 S
b1010 #"
b1010 8"
b11 v
b1010 L
b1010 $"
b1010 N"
b1001 V
b1001 s
b1001 0"
b1001 M"
1-
1%
#12500
0%
#15000
b1 M
b1 :"
b1 B"
b0 C"
b1 O
b1 r
b1 6"
0.
01
12
18
05
b1 N
b1 7"
b1 9"
b1 A"
b101000 =
b101000 b
b101000 T"
b0 S
b0 #"
b0 8"
b100 v
b1010000000000000 T
b1010000000000000 1"
b1011 L
b1011 $"
b1011 N"
b1010 V
b1010 s
b1010 0"
b1010 M"
1%
#17500
0%
#20000
b1111 R
b1111 o
b1111 *"
b10 O
b10 r
b10 6"
b10 N
b10 7"
b10 9"
b10 A"
b1 4
b1 Y
b1 '"
b1 W"
02
08
11
15
b10 S
b10 #"
b10 8"
b111101 <"
b11110100 -"
b1111 %"
b100 n
b1111 m
b100000 =
b100000 b
b100000 T"
b11110100 ""
b101 v
b1000000011110100 T
b1000000011110100 1"
b10 L
b10 $"
b10 N"
b1 V
b1 s
b1 0"
b1 M"
1%
#22500
0%
#25000
b101000 P
b101000 @"
b101000 D"
b101000 F"
b101000 H"
b101000 J"
b0 R
b0 o
b0 *"
1B
b11 O
b11 r
b11 6"
b100 [
b100 p
b100 ;"
b100 P"
b1 3
b1 X
b1 ?"
b1 X"
1/
b0 4
b0 Y
b0 '"
b0 W"
01
b11 N
b11 7"
b11 9"
b11 A"
b101000 <"
b10100000 -"
b1010 %"
b0 n
b1010 m
b101100 =
b101100 b
b101100 T"
b10100000 ""
b11 S
b11 #"
b11 8"
b110 v
b1011000010100000 T
b1011000010100000 1"
b11 L
b11 $"
b11 N"
b10 V
b10 s
b10 0"
b10 M"
1%
#27500
0%
#30000
b101000 $
b101000 <
b101000 a
b101000 E"
b1111 P
b1111 @"
b1111 D"
b1111 F"
b1111 H"
b1111 J"
0B
0i
1C
1h
b100 O
b100 r
b100 6"
b1111 [
b1111 p
b1111 ;"
b1111 P"
b0 3
b0 X
b0 ?"
b0 X"
b100 N
b100 7"
b100 9"
b100 A"
b1 y
b10000 <"
b110001000001 -"
b11000100 %"
b1 n
b100 m
b1100 l
b101011 =
b101011 b
b101011 T"
b1000001 ""
b100 S
b100 #"
b100 8"
b111 v
b1010110001000001 T
b1010110001000001 1"
b100 L
b100 $"
b100 N"
b11 V
b11 s
b11 0"
b11 M"
1%
#32500
0%
#35000
b1111 #
b1111 ;
b1111 `
b1111 G"
0C
1D
0h
1g
b101 O
b101 r
b101 6"
b101 N
b101 7"
b101 9"
b101 A"
b10 y
b110001000010 -"
b10 n
b1000010 ""
b101 S
b101 #"
b101 8"
b1000 v
b1010110001000010 T
b1010110001000010 1"
b101 L
b101 $"
b101 N"
b100 V
b100 s
b100 0"
b100 M"
1%
#37500
0%
#40000
b1111 "
b1111 :
b1111 _
b1111 I"
0D
0g
1E
1f
b110 O
b110 r
b110 6"
b110 N
b110 7"
b110 9"
b110 A"
b11 y
b110001000011 -"
b11 n
b1000011 ""
b110 S
b110 #"
b110 8"
b1001 v
b1010110001000011 T
b1010110001000011 1"
b110 L
b110 $"
b110 N"
b101 V
b101 s
b101 0"
b101 M"
1%
#42500
0%
#45000
b1111 !
b1111 9
b1111 ^
b1111 K"
b0 P
b0 @"
b0 D"
b0 F"
b0 H"
b0 J"
1B
1i
0E
0f
b111 O
b111 r
b111 6"
b0 [
b0 p
b0 ;"
b0 P"
1.
11
b111 N
b111 7"
b111 9"
b111 A"
b0 y
b0 <"
b0 -"
b0 %"
b0 n
b0 m
b0 l
b0 =
b0 b
b0 T"
b0 ""
b111 S
b111 #"
b111 8"
b1010 v
b0 T
b0 1"
b111 L
b111 $"
b111 N"
b110 V
b110 s
b110 0"
b110 M"
1%
#47500
0%
#50000
b1000 O
b1000 r
b1000 6"
b1000 N
b1000 7"
b1000 9"
b1000 A"
b1000 S
b1000 #"
b1000 8"
b1011 v
b1000 L
b1000 $"
b1000 N"
b111 V
b111 s
b111 0"
b111 M"
1%
#52500
0%
#55000
b1001 O
b1001 r
b1001 6"
b1001 N
b1001 7"
b1001 9"
b1001 A"
b1001 S
b1001 #"
b1001 8"
b1100 v
b1001 L
b1001 $"
b1001 N"
b1000 V
b1000 s
b1000 0"
b1000 M"
1%
#57500
0%
#60000
b1010 O
b1010 r
b1010 6"
b1010 N
b1010 7"
b1010 9"
b1010 A"
b1010 S
b1010 #"
b1010 8"
b1101 v
b1010 L
b1010 $"
b1010 N"
b1001 V
b1001 s
b1001 0"
b1001 M"
1%
#62500
0%
#65000
bx M
bx :"
bx B"
b111 C"
bx O
bx r
bx 6"
0.
01
12
18
05
bx N
bx 7"
bx 9"
bx A"
b101000 =
b101000 b
b101000 T"
b0 S
b0 #"
b0 8"
b1110 v
b1010000000000000 T
b1010000000000000 1"
b1011 L
b1011 $"
b1011 N"
b1010 V
b1010 s
b1010 0"
b1010 M"
1%
#67500
0%
#70000
b0 $
b0 <
b0 a
b0 E"
bx R
bx o
bx *"
bx P
bx @"
bx D"
bx F"
bx H"
bx J"
xB
xi
xC
xD
xE
xe
xh
xg
xf
bx W
bx )"
bx Q"
bx S"
bx U
bx ("
bx /"
bx [
bx p
bx ;"
bx P"
bx \
bx q
bx ."
bx O"
bx S
bx #"
bx 8"
bx y
bx <"
bx -"
bx %"
bx n
bx m
bx l
b0xxxxxx =
b0xxxxxx b
b0xxxxxx T"
bx ""
b1111 v
bx T
bx 1"
bx L
bx $"
bx N"
bx V
bx s
bx 0"
bx M"
1%
#72500
0%
#75000
b10000 v
1%
#77500
0%
#80000
b10001 v
1%
#82500
0%
#85000
b10010 v
1%
#87500
0%
#90000
b10011 v
1%
#92500
0%
#95000
b10100 v
1%
#97500
0%
#100000
b10101 v
1%
#102500
0%
#105000
b10110 v
1%
#107500
0%
#110000
b10111 v
1%
#112500
0%
#115000
b11000 v
1%
#117500
0%
#120000
b11001 v
1%
#122500
0%
#125000
b11010 v
1%
#127500
0%
#130000
b11011 v
1%
#132500
0%
#135000
b11100 v
1%
#137500
0%
#140000
b11101 v
1%
#142500
0%
#145000
b11110 v
1%
#147500
0%
#150000
b11111 v
1%
#152500
0%
#155000
b100000 v
1%
#157500
0%
#160000
b100001 v
1%
#162500
0%
#165000
b100010 v
1%
#167500
0%
#170000
b100011 v
1%
#172500
0%
#175000
b100100 v
1%
#177500
0%
#180000
b100101 v
1%
#182500
0%
#185000
b100110 v
1%
#187500
0%
#190000
b100111 v
1%
#192500
0%
#195000
b101000 v
1%
#197500
0%
#200000
b101001 v
1%
#202500
0%
#205000
b101010 v
1%
#207500
0%
#210000
b101011 v
1%
#212500
0%
#215000
b101100 v
1%
#217500
0%
#220000
b101101 v
1%
#222500
0%
#225000
b101110 v
1%
#227500
0%
#230000
b101111 v
1%
#232500
0%
#235000
b110000 v
1%
#237500
0%
#240000
b110001 v
1%
#242500
0%
#245000
b110010 v
1%
#247500
0%
#250000
b110011 v
1%
#252500
0%
#255000
b110100 v
1%
#257500
0%
#260000
b110101 v
1%
#262500
0%
#265000
b110110 v
1%
#267500
0%
#270000
b110111 v
1%
#272500
0%
#275000
b111000 v
1%
#277500
0%
#280000
b111001 v
1%
#282500
0%
#285000
b111010 v
1%
#287500
0%
#290000
b111011 v
1%
#292500
0%
#295000
b111100 v
1%
#297500
0%
#300000
b111101 v
1%
#302500
0%
#305000
b111110 v
1%
#307500
0%
#310000
b111111 v
1%
#312500
0%
#315000
b1000000 v
1%
#317500
0%
#320000
b1000001 v
1%
#322500
0%
#325000
b1000010 v
1%
#327500
0%
#330000
b1000011 v
1%
#332500
0%
#335000
b1000100 v
1%
#337500
0%
#340000
b1000101 v
1%
#342500
0%
#345000
b1000110 v
1%
#347500
0%
#350000
b1000111 v
1%
#352500
0%
#355000
b1001000 v
1%
#357500
0%
#360000
b1001001 v
1%
#362500
0%
#365000
b1001010 v
1%
#367500
0%
#370000
b1001011 v
1%
#372500
0%
#375000
b1001100 v
1%
#377500
0%
#380000
b1001101 v
1%
#382500
0%
#385000
b1001110 v
1%
#387500
0%
#390000
b1001111 v
1%
#392500
0%
#395000
b1010000 v
1%
#397500
0%
#400000
b1010001 v
1%
#402500
0%
#405000
b1010010 v
1%
#407500
0%
#410000
b1010011 v
1%
#412500
0%
#415000
b1010100 v
1%
#417500
0%
#420000
b1010101 v
1%
#422500
0%
#425000
b1010110 v
1%
#427500
0%
#430000
b1010111 v
1%
#432500
0%
#435000
b1011000 v
1%
#437500
0%
#440000
b1011001 v
1%
#442500
0%
#445000
b1011010 v
1%
#447500
0%
#450000
b1011011 v
1%
#452500
0%
#455000
b1011100 v
1%
#457500
0%
#460000
b1011101 v
1%
#462500
0%
#465000
b1011110 v
1%
#467500
0%
#470000
b1011111 v
1%
#472500
0%
#475000
b1100000 v
1%
#477500
0%
#480000
b1100001 v
1%
#482500
0%
#485000
b1100010 v
1%
#487500
0%
#490000
b1100011 v
1%
#492500
0%
#495000
b1100100 v
1%
#497500
0%
#500000
b1100101 v
1%
#502500
0%
#505000
b1100110 v
1%
#507500
0%
#510000
b1100111 v
1%
#512500
0%
#515000
b1101000 v
1%
#517500
0%
#520000
b1101001 v
1%
#522500
0%
#525000
b1101010 v
1%
#527500
0%
#530000
b1101011 v
1%
#532500
0%
#535000
b1101100 v
1%
#537500
0%
#540000
b1101101 v
1%
#542500
0%
#545000
b1101110 v
1%
#547500
0%
#550000
b1101111 v
1%
#552500
0%
#555000
b1110000 v
1%
#557500
0%
#560000
b1110001 v
1%
#562500
0%
#565000
b1110010 v
1%
#567500
0%
#570000
b1110011 v
1%
#572500
0%
#575000
b1110100 v
1%
#577500
0%
#580000
b1110101 v
1%
#582500
0%
#585000
b1110110 v
1%
#587500
0%
#590000
b1110111 v
1%
#592500
0%
#595000
b1111000 v
1%
#597500
0%
#600000
b1111001 v
1%
#602500
0%
#605000
b1111010 v
1%
#607500
0%
#610000
b1111011 v
1%
#612500
0%
#615000
b1111100 v
1%
#617500
0%
#620000
b1111101 v
1%
#622500
0%
#625000
b1111110 v
1%
#627500
0%
#630000
b1111111 v
1%
#632500
0%
#635000
b10000000 v
1%
#637500
0%
#640000
b10000001 v
1%
#642500
0%
#645000
b10000010 v
1%
#647500
0%
#650000
b10000011 v
1%
#652500
0%
#655000
b10000100 v
1%
#657500
0%
#660000
b10000101 v
1%
#662500
0%
#665000
b10000110 v
1%
#667500
0%
#670000
b10000111 v
1%
#672500
0%
#675000
b10001000 v
1%
#677500
0%
#680000
b10001001 v
1%
#682500
0%
#685000
b10001010 v
1%
#687500
0%
#690000
b10001011 v
1%
#692500
0%
#695000
b10001100 v
1%
#697500
0%
#700000
b10001101 v
1%
#702500
0%
#705000
b10001110 v
1%
#707500
0%
#710000
b10001111 v
1%
#712500
0%
#715000
b10010000 v
1%
#717500
0%
#720000
b10010001 v
1%
#722500
0%
#725000
b10010010 v
1%
#727500
0%
#730000
b10010011 v
1%
#732500
0%
#735000
b10010100 v
1%
#737500
0%
#740000
b10010101 v
1%
#742500
0%
#745000
b10010110 v
1%
#747500
0%
#750000
b10010111 v
1%
#752500
0%
#755000
b10011000 v
1%
#757500
0%
#760000
b10011001 v
1%
#762500
0%
#765000
b10011010 v
1%
#767500
0%
#770000
b10011011 v
1%
#772500
0%
#775000
b10011100 v
1%
#777500
0%
#780000
b10011101 v
1%
#782500
0%
#785000
b10011110 v
1%
#787500
0%
#790000
b10011111 v
1%
#792500
0%
#795000
b10100000 v
1%
#797500
0%
#800000
b10100001 v
1%
#802500
0%
#805000
b10100010 v
1%
#807500
0%
#810000
b10100011 v
1%
#812500
0%
#815000
b10100100 v
1%
#817500
0%
#820000
b10100101 v
1%
#822500
0%
#825000
b10100110 v
1%
#827500
0%
#830000
b10100111 v
1%
#832500
0%
#835000
b10101000 v
1%
#837500
0%
#840000
b10101001 v
1%
#842500
0%
#845000
b10101010 v
1%
#847500
0%
#850000
b10101011 v
1%
#852500
0%
#855000
b10101100 v
1%
#857500
0%
#860000
b10101101 v
1%
#862500
0%
#865000
b10101110 v
1%
#867500
0%
#870000
b10101111 v
1%
#872500
0%
#875000
b10110000 v
1%
#877500
0%
#880000
b10110001 v
1%
#882500
0%
#885000
b10110010 v
1%
#887500
0%
#890000
b10110011 v
1%
#892500
0%
#895000
b10110100 v
1%
#897500
0%
#900000
b10110101 v
1%
#902500
0%
#905000
b10110110 v
1%
#907500
0%
#910000
b10110111 v
1%
#912500
0%
#915000
b10111000 v
1%
#917500
0%
#920000
b10111001 v
1%
#922500
0%
#925000
b10111010 v
1%
#927500
0%
#930000
b10111011 v
1%
#932500
0%
#935000
b10111100 v
1%
#937500
0%
#940000
b10111101 v
1%
#942500
0%
#945000
b10111110 v
1%
#947500
0%
#950000
b10111111 v
1%
#952500
0%
#955000
b11000000 v
1%
#957500
0%
#960000
b11000001 v
1%
#962500
0%
#965000
b11000010 v
1%
#967500
0%
#970000
b11000011 v
1%
#972500
0%
#975000
b11000100 v
1%
#977500
0%
#980000
b11000101 v
1%
#982500
0%
#985000
b11000110 v
1%
#987500
0%
#990000
b11000111 v
1%
#992500
0%
#995000
b11001000 v
1%
#997500
0%
#1000000
b11001001 v
1%
#1002500
0%
#1005000
b11001010 v
1%
#1007500
0%
#1010000
b11001011 v
1%
#1012500
0%
#1015000
b11001100 v
1%
#1017500
0%
#1020000
b11001101 v
1%
#1022500
0%
#1025000
b11001110 v
1%
#1027500
0%
#1030000
b11001111 v
1%
#1032500
0%
#1035000
b11010000 v
1%
#1037500
0%
#1040000
b11010001 v
1%
#1042500
0%
#1045000
b11010010 v
1%
#1047500
0%
#1050000
b11010011 v
1%
#1052500
0%
#1055000
b11010100 v
1%
#1057500
0%
#1060000
b11010101 v
1%
#1062500
0%
#1065000
b11010110 v
1%
#1067500
0%
#1070000
b11010111 v
1%
#1072500
0%
#1075000
b11011000 v
1%
#1077500
0%
#1080000
b11011001 v
1%
#1082500
0%
#1085000
b11011010 v
1%
#1087500
0%
#1090000
b11011011 v
1%
#1092500
0%
#1095000
b11011100 v
1%
#1097500
0%
#1100000
b11011101 v
1%
#1102500
0%
#1105000
b11011110 v
1%
#1107500
0%
#1110000
b11011111 v
1%
#1112500
0%
#1115000
b11100000 v
1%
#1117500
0%
#1120000
b11100001 v
1%
#1122500
0%
#1125000
b11100010 v
1%
#1127500
0%
#1130000
b11100011 v
1%
#1132500
0%
#1135000
b11100100 v
1%
#1137500
0%
#1140000
b11100101 v
1%
#1142500
0%
#1145000
b11100110 v
1%
#1147500
0%
#1150000
b11100111 v
1%
#1152500
0%
#1155000
b11101000 v
1%
#1157500
0%
#1160000
b11101001 v
1%
#1162500
0%
#1165000
b11101010 v
1%
#1167500
0%
#1170000
b11101011 v
1%
#1172500
0%
#1175000
b11101100 v
1%
#1177500
0%
#1180000
b11101101 v
1%
#1182500
0%
#1185000
b11101110 v
1%
#1187500
0%
#1190000
b11101111 v
1%
#1192500
0%
#1195000
b11110000 v
1%
#1197500
0%
#1200000
b11110001 v
1%
#1202500
0%
#1205000
b11110010 v
1%
#1207500
0%
#1210000
b11110011 v
1%
#1212500
0%
#1215000
b11110100 v
1%
#1217500
0%
#1220000
b11110101 v
1%
#1222500
0%
#1225000
b11110110 v
1%
#1227500
0%
#1230000
b11110111 v
1%
#1232500
0%
#1235000
b11111000 v
1%
#1237500
0%
#1240000
b11111001 v
1%
#1242500
0%
#1245000
b11111010 v
1%
#1247500
0%
#1250000
b11111011 v
1%
#1252500
0%
#1255000
b11111100 v
1%
#1257500
0%
#1260000
b11111101 v
1%
#1262500
0%
#1265000
b11111110 v
1%
#1267500
0%
#1270000
b11111111 v
1%
#1272500
0%
#1275000
b100000000 v
1%
#1277500
0%
#1280000
b100000001 v
1%
#1282500
0%
#1285000
b100000010 v
1%
#1287500
0%
#1290000
b100000011 v
1%
#1292500
0%
#1295000
b100000100 v
1%
#1297500
0%
#1300000
b100000101 v
1%
#1302500
0%
#1305000
b100000110 v
1%
#1307500
0%
#1310000
b100000111 v
1%
#1312500
0%
#1315000
b100001000 v
1%
#1317500
0%
#1320000
b100001001 v
1%
#1322500
0%
#1325000
b100001010 v
1%
#1327500
0%
#1330000
b100001011 v
1%
#1332500
0%
#1335000
b100001100 v
1%
#1337500
0%
#1340000
b100001101 v
1%
#1342500
0%
#1345000
b100001110 v
1%
#1347500
0%
#1350000
b100001111 v
1%
#1352500
0%
#1355000
b100010000 v
1%
#1357500
0%
#1360000
b100010001 v
1%
#1362500
0%
#1365000
b100010010 v
1%
#1367500
0%
#1370000
b100010011 v
1%
#1372500
0%
#1375000
b100010100 v
1%
#1377500
0%
#1380000
b100010101 v
1%
#1382500
0%
#1385000
b100010110 v
1%
#1387500
0%
#1390000
b100010111 v
1%
#1392500
0%
#1395000
b100011000 v
1%
#1397500
0%
#1400000
b100011001 v
1%
#1402500
0%
#1405000
b100011010 v
1%
#1407500
0%
#1410000
b100011011 v
1%
#1412500
0%
#1415000
b100011100 v
1%
#1417500
0%
#1420000
b100011101 v
1%
#1422500
0%
#1425000
b100011110 v
1%
#1427500
0%
#1430000
b100011111 v
1%
#1432500
0%
#1435000
b100100000 v
1%
#1437500
0%
#1440000
b100100001 v
1%
#1442500
0%
#1445000
b100100010 v
1%
#1447500
0%
#1450000
b100100011 v
1%
#1452500
0%
#1455000
b100100100 v
1%
#1457500
0%
#1460000
b100100101 v
1%
#1462500
0%
#1465000
b100100110 v
1%
#1467500
0%
#1470000
b100100111 v
1%
#1472500
0%
#1475000
b100101000 v
1%
#1477500
0%
#1480000
b100101001 v
1%
#1482500
0%
#1485000
b100101010 v
1%
#1487500
0%
#1490000
b100101011 v
1%
#1492500
0%
#1495000
b100101100 v
1%
#1497500
0%
#1500000
b100101101 v
1%
#1502500
0%
#1505000
b100101110 v
1%
#1507500
0%
#1510000
b100101111 v
1%
#1512500
0%
#1515000
b100110000 v
1%
#1517500
0%
#1520000
b100110001 v
1%
#1522500
0%
#1525000
b100110010 v
1%
#1527500
0%
#1530000
b100110011 v
1%
#1532500
0%
#1535000
b100110100 v
1%
#1537500
0%
#1540000
b100110101 v
1%
#1542500
0%
#1545000
b100110110 v
1%
#1547500
0%
#1550000
b100110111 v
1%
#1552500
0%
#1555000
b100111000 v
1%
#1557500
0%
#1560000
b100111001 v
1%
#1562500
0%
#1565000
b100111010 v
1%
#1567500
0%
#1570000
b100111011 v
1%
#1572500
0%
#1575000
b100111100 v
1%
#1577500
0%
#1580000
b100111101 v
1%
#1582500
0%
#1585000
b100111110 v
1%
#1587500
0%
#1590000
b100111111 v
1%
#1592500
0%
#1595000
b101000000 v
1%
#1597500
0%
#1600000
b101000001 v
1%
#1602500
0%
#1605000
b101000010 v
1%
#1607500
0%
#1610000
b101000011 v
1%
#1612500
0%
#1615000
b101000100 v
1%
#1617500
0%
#1620000
b101000101 v
1%
#1622500
0%
#1625000
b101000110 v
1%
#1627500
0%
