Tercero/Diseño_Procesadores/pr1_uc-camino-datos/multiplicador_tb.vcd
$date
	Wed Feb 24 11:08:34 2021
$end
$version
	Icarus Verilog
$end
$timescale
	10ps
$end
$scope module multiplicador_tb $end
$var wire 6 ! resultado [5:0] $end
$var wire 1 " Fin $end
$var reg 1 # clk $end
$var reg 3 $ multiplicador [2:0] $end
$var reg 3 % multiplicando [2:0] $end
$var reg 6 & resultado_esperado [5:0] $end
$var reg 1 ' start $end
$var integer 32 ( contador [31:0] $end
$scope module mult $end
$var wire 1 # clk $end
$var wire 3 ) multiplicador [2:0] $end
$var wire 3 * multiplicando [2:0] $end
$var wire 1 ' reset $end
$var wire 6 + resultado [5:0] $end
$var wire 1 , resta $end
$var wire 1 - qsub1 $end
$var wire 3 . q [2:0] $end
$var wire 1 / desplaza $end
$var wire 1 " Fin $end
$var wire 1 0 CargaQ $end
$var wire 1 1 CargaM $end
$var wire 1 2 CargaA $end
$scope module CD $end
$var wire 1 3 carga $end
$var wire 1 # clk $end
$var wire 3 4 entrada_m [2:0] $end
$var wire 3 5 entrada_q [2:0] $end
$var wire 1 ' reset $end
$var wire 4 6 salida_sumador [3:0] $end
$var wire 3 7 salida_q [2:0] $end
$var wire 4 8 salida_m [3:0] $end
$var wire 4 9 salida_a [3:0] $end
$var wire 6 : resultado [5:0] $end
$var wire 1 , resta $end
$var wire 1 - qsub1 $end
$var wire 1 " fin $end
$var wire 1 / desplaza $end
$var wire 1 1 CargaQ $end
$var wire 1 0 CargaM $end
$var wire 1 2 CargaA $end
$scope module A $end
$var wire 1 ; bit_en_desp $end
$var wire 1 # clk $end
$var wire 1 < enable $end
$var wire 1 ' reset $end
$var wire 4 = salida [3:0] $end
$var wire 4 > entrada [3:0] $end
$var wire 1 / Desplaza $end
$var wire 1 2 Carga $end
$scope module ff0 $end
$var wire 1 < carga $end
$var wire 1 # clk $end
$var wire 1 ? inp_c $end
$var wire 1 @ inp_d $end
$var wire 1 ' reset $end
$var wire 1 2 selc_d $end
$var wire 1 A salida $end
$var wire 1 B inp $end
$scope module ff0 $end
$var wire 1 < carga $end
$var wire 1 # clk $end
$var wire 1 ' reset $end
$var wire 1 B d $end
$var reg 1 A q $end
$upscope $end
$scope module mux0 $end
$var wire 1 @ a $end
$var wire 1 ? b $end
$var wire 1 B out $end
$var wire 1 C s_n $end
$var wire 1 D sa $end
$var wire 1 E sb $end
$var wire 1 2 s $end
$upscope $end
$upscope $end
$scope module ff1 $end
$var wire 1 < carga $end
$var wire 1 # clk $end
$var wire 1 F inp_c $end
$var wire 1 G inp_d $end
$var wire 1 ' reset $end
$var wire 1 2 selc_d $end
$var wire 1 H salida $end
$var wire 1 I inp $end
$scope module ff0 $end
$var wire 1 < carga $end
$var wire 1 # clk $end
$var wire 1 ' reset $end
$var wire 1 I d $end
$var reg 1 H q $end
$upscope $end
$scope module mux0 $end
$var wire 1 G a $end
$var wire 1 F b $end
$var wire 1 I out $end
$var wire 1 J s_n $end
$var wire 1 K sa $end
$var wire 1 L sb $end
$var wire 1 2 s $end
$upscope $end
$upscope $end
$scope module ff2 $end
$var wire 1 < carga $end
$var wire 1 # clk $end
$var wire 1 M inp_c $end
$var wire 1 N inp_d $end
$var wire 1 ' reset $end
$var wire 1 2 selc_d $end
$var wire 1 O salida $end
$var wire 1 P inp $end
$scope module ff0 $end
$var wire 1 < carga $end
$var wire 1 # clk $end
$var wire 1 ' reset $end
$var wire 1 P d $end
$var reg 1 O q $end
$upscope $end
$scope module mux0 $end
$var wire 1 N a $end
$var wire 1 M b $end
$var wire 1 P out $end
$var wire 1 Q s_n $end
$var wire 1 R sa $end
$var wire 1 S sb $end
$var wire 1 2 s $end
$upscope $end
$upscope $end
$scope module ff3 $end
$var wire 1 < carga $end
$var wire 1 # clk $end
$var wire 1 T inp_c $end
$var wire 1 ; inp_d $end
$var wire 1 ' reset $end
$var wire 1 2 selc_d $end
$var wire 1 U salida $end
$var wire 1 V inp $end
$scope module ff0 $end
$var wire 1 < carga $end
$var wire 1 # clk $end
$var wire 1 ' reset $end
$var wire 1 V d $end
$var reg 1 U q $end
$upscope $end
$scope module mux0 $end
$var wire 1 ; a $end
$var wire 1 T b $end
$var wire 1 V out $end
$var wire 1 W s_n $end
$var wire 1 X sa $end
$var wire 1 Y sb $end
$var wire 1 2 s $end
$upscope $end
$upscope $end
$upscope $end
$scope module M $end
$var wire 1 Z Desplaza $end
$var wire 1 [ bit_en_desp $end
$var wire 1 # clk $end
$var wire 1 \ enable $end
$var wire 4 ] entrada [3:0] $end
$var wire 1 ' reset $end
$var wire 4 ^ salida [3:0] $end
$var wire 1 0 Carga $end
$scope module ff0 $end
$var wire 1 \ carga $end
$var wire 1 # clk $end
$var wire 1 _ inp_c $end
$var wire 1 ` inp_d $end
$var wire 1 ' reset $end
$var wire 1 0 selc_d $end
$var wire 1 a salida $end
$var wire 1 b inp $end
$scope module ff0 $end
$var wire 1 \ carga $end
$var wire 1 # clk $end
$var wire 1 ' reset $end
$var wire 1 b d $end
$var reg 1 a q $end
$upscope $end
$scope module mux0 $end
$var wire 1 ` a $end
$var wire 1 _ b $end
$var wire 1 b out $end
$var wire 1 c s_n $end
$var wire 1 d sa $end
$var wire 1 e sb $end
$var wire 1 0 s $end
$upscope $end
$upscope $end
$scope module ff1 $end
$var wire 1 \ carga $end
$var wire 1 # clk $end
$var wire 1 f inp_c $end
$var wire 1 g inp_d $end
$var wire 1 ' reset $end
$var wire 1 0 selc_d $end
$var wire 1 h salida $end
$var wire 1 i inp $end
$scope module ff0 $end
$var wire 1 \ carga $end
$var wire 1 # clk $end
$var wire 1 ' reset $end
$var wire 1 i d $end
$var reg 1 h q $end
$upscope $end
$scope module mux0 $end
$var wire 1 g a $end
$var wire 1 f b $end
$var wire 1 i out $end
$var wire 1 j s_n $end
$var wire 1 k sa $end
$var wire 1 l sb $end
$var wire 1 0 s $end
$upscope $end
$upscope $end
$scope module ff2 $end
$var wire 1 \ carga $end
$var wire 1 # clk $end
$var wire 1 m inp_c $end
$var wire 1 n inp_d $end
$var wire 1 ' reset $end
$var wire 1 0 selc_d $end
$var wire 1 o salida $end
$var wire 1 p inp $end
$scope module ff0 $end
$var wire 1 \ carga $end
$var wire 1 # clk $end
$var wire 1 ' reset $end
$var wire 1 p d $end
$var reg 1 o q $end
$upscope $end
$scope module mux0 $end
$var wire 1 n a $end
$var wire 1 m b $end
$var wire 1 p out $end
$var wire 1 q s_n $end
$var wire 1 r sa $end
$var wire 1 s sb $end
$var wire 1 0 s $end
$upscope $end
$upscope $end
$scope module ff3 $end
$var wire 1 \ carga $end
$var wire 1 # clk $end
$var wire 1 t inp_c $end
$var wire 1 [ inp_d $end
$var wire 1 ' reset $end
$var wire 1 0 selc_d $end
$var wire 1 u salida $end
$var wire 1 v inp $end
$scope module ff0 $end
$var wire 1 \ carga $end
$var wire 1 # clk $end
$var wire 1 ' reset $end
$var wire 1 v d $end
$var reg 1 u q $end
$upscope $end
$scope module mux0 $end
$var wire 1 [ a $end
$var wire 1 t b $end
$var wire 1 v out $end
$var wire 1 w s_n $end
$var wire 1 x sa $end
$var wire 1 y sb $end
$var wire 1 0 s $end
$upscope $end
$upscope $end
$upscope $end
$scope module Q $end
$var wire 1 z bit_en_desp $end
$var wire 1 # clk $end
$var wire 1 { enable $end
$var wire 3 | entrada [2:0] $end
$var wire 1 ' reset $end
$var wire 3 } salida [2:0] $end
$var wire 1 / Desplaza $end
$var wire 1 1 Carga $end
$scope module ff0 $end
$var wire 1 { carga $end
$var wire 1 # clk $end
$var wire 1 ~ inp_c $end
$var wire 1 !" inp_d $end
$var wire 1 ' reset $end
$var wire 1 1 selc_d $end
$var wire 1 "" salida $end
$var wire 1 #" inp $end
$scope module ff0 $end
$var wire 1 { carga $end
$var wire 1 # clk $end
$var wire 1 ' reset $end
$var wire 1 #" d $end
$var reg 1 "" q $end
$upscope $end
$scope module mux0 $end
$var wire 1 !" a $end
$var wire 1 ~ b $end
$var wire 1 #" out $end
$var wire 1 $" s_n $end
$var wire 1 %" sa $end
$var wire 1 &" sb $end
$var wire 1 1 s $end
$upscope $end
$upscope $end
$scope module ff1 $end
$var wire 1 { carga $end
$var wire 1 # clk $end
$var wire 1 '" inp_c $end
$var wire 1 (" inp_d $end
$var wire 1 ' reset $end
$var wire 1 1 selc_d $end
$var wire 1 )" salida $end
$var wire 1 *" inp $end
$scope module ff0 $end
$var wire 1 { carga $end
$var wire 1 # clk $end
$var wire 1 ' reset $end
$var wire 1 *" d $end
$var reg 1 )" q $end
$upscope $end
$scope module mux0 $end
$var wire 1 (" a $end
$var wire 1 '" b $end
$var wire 1 *" out $end
$var wire 1 +" s_n $end
$var wire 1 ," sa $end
$var wire 1 -" sb $end
$var wire 1 1 s $end
$upscope $end
$upscope $end
$scope module ff2 $end
$var wire 1 { carga $end
$var wire 1 # clk $end
$var wire 1 ." inp_c $end
$var wire 1 z inp_d $end
$var wire 1 ' reset $end
$var wire 1 1 selc_d $end
$var wire 1 /" salida $end
$var wire 1 0" inp $end
$scope module ff0 $end
$var wire 1 { carga $end
$var wire 1 # clk $end
$var wire 1 ' reset $end
$var wire 1 0" d $end
$var reg 1 /" q $end
$upscope $end
$scope module mux0 $end
$var wire 1 z a $end
$var wire 1 ." b $end
$var wire 1 0" out $end
$var wire 1 1" s_n $end
$var wire 1 2" sa $end
$var wire 1 3" sb $end
$var wire 1 1 s $end
$upscope $end
$upscope $end
$upscope $end
$scope module Qmenos1 $end
$var wire 1 3 carga $end
$var wire 1 # clk $end
$var wire 1 4" d $end
$var wire 1 ' reset $end
$var reg 1 - q $end
$upscope $end
$scope module Sumador $end
$var wire 4 5" A [3:0] $end
$var wire 4 6" B [3:0] $end
$var wire 1 , resta $end
$var wire 1 7" c_out $end
$var wire 4 8" S [3:0] $end
$upscope $end
$upscope $end
$scope module UC $end
$var wire 1 # clk $end
$var wire 3 9" q [2:0] $end
$var wire 1 - qsub1 $end
$var wire 1 ' reset $end
$var wire 1 , Resta $end
$var wire 1 " Fin $end
$var wire 1 / DesplazaAQ $end
$var wire 1 0 CargaQ $end
$var wire 1 1 CargaM $end
$var wire 1 2 CargaA $end
$var reg 3 :" estado [2:0] $end
$var reg 3 ;" estado_siguiente [2:0] $end
$upscope $end
$upscope $end
$upscope $end
$enddefinitions $end
#0
$dumpvars
b1 ;"
b0 :"
b0 9"
b0 8"
07"
b0 6"
b0 5"
04"
13"
02"
01"
10"
0/"
1."
0-"
0,"
0+"
0*"
0)"
0("
0'"
0&"
0%"
0$"
0#"
0""
0!"
0~
b0 }
b100 |
1{
0z
1y
0x
0w
1v
0u
1t
1s
0r
0q
1p
0o
0n
1m
0l
0k
0j
0i
0h
0g
0f
0e
0d
0c
0b
0a
0`
0_
b0 ^
b1100 ]
1\
0[
0Z
0Y
0X
1W
0V
0U
0T
0S
0R
1Q
0P
0O
0N
0M
0L
0K
1J
0I
0H
0G
0F
0E
0D
1C
0B
0A
0@
0?
b0 >
b0 =
0<
0;
b0 :
b0 9
b0 8
b0 7
b0 6
b100 5
b100 4
z3
02
11
10
0/
b0 .
0-
0,
b0 +
b100 *
b100 )
b1 (
1'
bx &
b100 %
b100 $
0#
0"
b0 !
$end
#100
0'
#500
1V
1P
1i
1*"
1Y
0W
1S
0Q
0J
0C
1<
0v
1r
1k
00"
1,"
12
0y
1w
0s
1q
1j
1c
0\
03"
11"
1+"
1$"
0{
1T
1M
00
01
b1100 6
b1100 >
b1100 8"
b10 ;"
1n
1g
1("
b1 :"
1u
b1100 8
b1100 ^
b1100 6"
1o
b100 !
b100 +
b100 :
b100 .
b100 7
b100 }
b100 9"
1/"
1#
#1000
0#
#1500
1I
1X
1R
1K
1P
1{
0Y
1W
1Q
1J
1C
0S
1/
02
0M
b1000 6
b1000 >
b1000 8"
17"
1G
b100100 !
b100100 +
b100100 :
1N
1;
b11 ;"
1O
b1100 9
b1100 =
b1100 5"
1U
b10 :"
1#
#2000
0#
#2500
0P
0X
0R
0K
0{
1Y
0W
0Q
1L
0J
0C
0/
12
0*"
1#"
1F
0B
0,"
1%"
b1010 6
b1010 >
b1010 8"
0D
b100 ;"
0("
1!"
1@
b11 :"
0/"
b110010 !
b110010 +
b110010 :
b10 .
b10 7
b10 }
b10 9"
1)"
b1110 9
b1110 =
b1110 5"
1H
1#
#3000
0#
#3500
1P
1B
1X
1R
0I
1D
1V
1{
1W
1Q
0L
1J
1C
0Y
1/
02
0T
1M
b110 6
b110 >
b110 8"
0G
b10010 !
b10010 +
b10010 :
b101 ;"
b1010 9
b1010 =
b1010 5"
0O
b100 :"
1#
#4000
0#
#4500
0V
0P
0X
0R
0W
0Q
0J
1E
0C
12
07"
0{
1<
0/
1,
0#"
0I
1B
0T
0M
0F
1?
10"
0%"
0K
0D
b1 6
b1 >
b1 8"
12"
b110 ;"
0!"
14"
1G
0@
1z
b101 :"
0)"
b101001 !
b101001 +
b101001 :
b1 .
b1 7
b1 }
b1 9"
1""
1O
0H
b1101 9
b1101 =
b1101 5"
1A
1#
#5000
0#
#5500
0B
1W
1Q
1J
0E
1C
1{
02
1M
1/
b101 6
b101 >
b101 8"
17"
0G
b1001 !
b1001 +
b1001 :
0N
0;
b111 ;"
0O
b1 9
b1 =
b1 5"
0U
b110 :"
1#
#6000
0#
#6500
1T
07"
0{
0<
0,
0/
b10000 &
1*"
0?
00"
1"
1,"
b1100 6
b1100 >
b1100 8"
02"
1("
04"
0z
b111 :"
1/"
b100 !
b100 +
b100 :
b100 .
b100 7
b100 }
b100 9"
0""
b0 9
b0 =
b0 5"
0A
1#
#7000
0#
#7500
1#
#8000
0#
#8500
1v
10"
1#"
1y
0w
1s
0q
0j
0c
1\
13"
01"
0+"
1&"
0$"
1{
1p
0T
0M
0i
0*"
10
11
0"
0r
b0 6
b0 >
b0 8"
0k
0,"
b1 ;"
0n
0g
0("
b0 :"
0u
b0 8
b0 ^
b0 6"
0o
b0 !
b0 +
b0 :
b0 .
b0 7
b0 }
b0 9"
0/"
1~
1#
1'
b101 $
b101 )
b101 5
b101 |
b10 (
#8600
0'
#9000
0#
#9500
17"
0V
1P
1i
1*"
0W
0Q
0J
0C
1<
1,
0Y
1S
0v
1r
1k
00"
1,"
0#"
12
0T
1M
0y
1w
0s
1q
1j
1c
0\
03"
11"
1+"
0&"
1$"
0{
b100 6
b100 >
b100 8"
00
01
14"
1("
1g
1n
b10 ;"
1""
b101 !
b101 +
b101 :
b101 .
b101 7
b101 }
b101 9"
1/"
1o
b1100 8
b1100 ^
b1100 6"
1u
b1 :"
1#
#10000
0#
#10500
1I
1K
1{
1W
1Q
1J
1C
0V
0P
1/
02
0Y
0S
1T
0M
b1000 6
b1000 >
b1000 8"
b11 ;"
1G
b100101 !
b100101 +
b100101 :
b10 :"
b100 9
b100 =
b100 5"
1O
1#
#11000
0#
#11500
1V
1Y
07"
1P
0{
0W
0Q
0J
0C
1S
1L
0,
0/
12
0B
1T
1M
1F
1I
1#"
0*"
0D
b1110 6
b1110 >
b1110 8"
0K
1%"
0,"
1@
0G
04"
1!"
0("
b100 ;"
1H
b10 9
b10 =
b10 5"
0O
0""
1)"
b10010 !
b10010 +
b10010 :
b10 .
b10 7
b10 }
b10 9"
0/"
b11 :"
1#
#12000
0#
#12500
1B
1X
1R
1K
1D
1{
0Y
1W
1Q
0L
1J
1C
1P
1/
02
0S
0M
b1010 6
b1010 >
b1010 8"
17"
b101 ;"
1N
1;
1G
b110010 !
b110010 +
b110010 :
b100 :"
1U
b1110 9
b1110 =
b1110 5"
1O
1#
#13000
0#
#13500
0V
0P
0X
0R
0K
0D
0W
0Q
1L
0J
1E
0C
12
0T
07"
0{
1<
1,
0/
1?
10"
0#"
b11 6
b11 >
b11 8"
12"
0%"
1z
14"
0!"
b110 ;"
b1111 9
b1111 =
b1111 5"
1A
1""
b111001 !
b111001 +
b111001 :
b1 .
b1 7
b1 }
b1 9"
0)"
b101 :"
1#
#14000
0#
#14500
0I
1D
1W
1Q
0L
1J
0E
1C
0P
1{
02
0S
1/
1M
b111 6
b111 >
b111 8"
17"
b111 ;"
0N
0;
0G
b11001 !
b11001 +
b11001 :
b110 :"
0U
b11 9
b11 =
b11 5"
0O
1#
#15000
0#
#15500
1T
07"
0,
0{
0<
0F
0B
1*"
0/
b1100 &
b1101 6
b1101 >
b1101 8"
0D
1,"
1"
0@
04"
1("
b1 9
b1 =
b1 5"
0H
0""
b1100 !
b1100 +
b1100 :
b100 .
b100 7
b100 }
b100 9"
1/"
b111 :"
1#
#16000
0#
#16500
1#
#17000
0#
#17500
1v
0i
0T
0M
0?
1y
0w
1s
0q
0j
0c
1\
13"
01"
1-"
0+"
0$"
1{
02"
0,"
0k
b0 6
b0 >
b0 8"
0r
10
11
0"
0z
0("
0g
0n
b1 ;"
b0 9
b0 =
b0 5"
0A
b0 !
b0 +
b0 :
b0 .
b0 7
b0 }
b0 9"
0/"
0o
b0 8
b0 ^
b0 6"
0u
b0 :"
0~
1'"
1#
1'
b110 $
b110 )
b110 5
b110 |
b11 (
#17600
0'
#18000
0#
#18500
1V
1P
1i
1#"
1Y
0W
1S
0Q
0J
0C
1<
0v
1r
1k
00"
1,"
1%"
12
0y
1w
0s
1q
1j
1c
0\
03"
11"
0-"
1+"
1$"
0{
1T
1M
00
01
b1100 6
b1100 >
b1100 8"
b10 ;"
1n
1g
1("
1!"
b1 :"
1u
b1100 8
b1100 ^
b1100 6"
1o
1/"
b110 !
b110 +
b110 :
b110 .
b110 7
b110 }
b110 9"
1)"
1#
#19000
0#
#19500
1I
1X
1R
1K
1P
1{
0Y
1W
1Q
1J
1C
0S
1/
02
0M
b1000 6
b1000 >
b1000 8"
17"
1G
b100110 !
b100110 +
b100110 :
1N
1;
b11 ;"
1O
b1100 9
b1100 =
b1100 5"
1U
b10 :"
1#
#20000
0#
#20500
0V
0P
0T
0X
0R
0K
07"
0{
0Y
0W
0Q
1L
0J
0C
0/
12
1,
0*"
1F
0B
0,"
b10 6
b10 >
b10 8"
0D
b100 ;"
0("
14"
1@
b11 :"
0/"
b110011 !
b110011 +
b110011 :
b11 .
b11 7
b11 }
b11 9"
1""
b1110 9
b1110 =
b1110 5"
1H
1#
#21000
0#
#21500
1B
0I
1D
1{
1W
1Q
0L
1J
1C
1/
02
1M
b110 6
b110 >
b110 8"
17"
0G
b10011 !
b10011 +
b10011 :
0N
0;
b101 ;"
0O
b10 9
b10 =
b10 5"
0U
b100 :"
1#
#22000
0#
#22500
1P
0{
0W
1S
0Q
0J
1E
0C
0/
12
0#"
1B
0F
1?
10"
0%"
0D
b101 6
b101 >
b101 8"
12"
b110 ;"
0!"
0@
1z
b101 :"
b1001 !
b1001 +
b1001 :
b1 .
b1 7
b1 }
b1 9"
0)"
0H
b1 9
b1 =
b1 5"
1A
1#
#23000
0#
#23500
1I
1K
0B
0P
1W
1Q
1J
0E
1C
0S
1{
02
1T
0M
1/
b1001 6
b1001 >
b1001 8"
1G
b101001 !
b101001 +
b101001 :
b111 ;"
b101 9
b101 =
b101 5"
1O
b110 :"
1#
#24000
0#
#24500
07"
0{
0<
0,
0/
b1000 &
1*"
0I
1B
1T
1M
1F
0?
00"
1"
1,"
0K
1D
b1110 6
b1110 >
b1110 8"
02"
1("
04"
0G
1@
0z
b111 :"
1/"
b10100 !
b10100 +
b10100 :
b100 .
b100 7
b100 }
b100 9"
0""
0O
1H
b10 9
b10 =
b10 5"
0A
1#
#25000
0#
#25500
1#
#26000
0#
#26500
1v
10"
1#"
1y
0w
1s
0q
0j
0c
1\
13"
01"
1-"
0+"
1&"
0$"
1{
1p
0i
1*"
0T
0M
0F
0B
10
11
0"
0r
0k
0,"
b0 6
b0 >
b0 8"
0D
b1 ;"
0n
0g
0("
0@
b0 :"
0u
b0 8
b0 ^
b0 6"
0o
b0 !
b0 +
b0 :
b0 .
b0 7
b0 }
b0 9"
0/"
b0 9
b0 =
b0 5"
0H
1~
1#
1'
b111 $
b111 )
b111 5
b111 |
b100 (
#26600
0'
#27000
0#
#27500
17"
0V
1P
1i
0W
0Q
0J
0C
1<
1,
0Y
1S
0v
1r
1k
00"
1,"
1%"
12
0T
1M
0y
1w
0s
1q
1j
1c
0\
03"
11"
0-"
1+"
0&"
1$"
0{
b100 6
b100 >
b100 8"
00
01
14"
1!"
1("
1g
1n
b10 ;"
1""
1)"
b111 !
b111 +
b111 :
b111 .
b111 7
b111 }
b111 9"
1/"
1o
b1100 8
b1100 ^
b1100 6"
1u
b1 :"
1#
#28000
0#
#28500
1I
1K
1{
1W
1Q
1J
1C
0V
0P
1/
02
0Y
0S
1T
0M
b1000 6
b1000 >
b1000 8"
b11 ;"
1G
b100111 !
b100111 +
b100111 :
b10 :"
b100 9
b100 =
b100 5"
1O
1#
#29000
0#
#29500
1P
0{
0W
0Q
0J
0C
1S
1L
0/
12
0B
0T
1M
1F
1I
0*"
0D
b110 6
b110 >
b110 8"
0K
0,"
1@
0G
0("
b100 ;"
1H
b10 9
b10 =
b10 5"
0O
b10011 !
b10011 +
b10011 :
b11 .
b11 7
b11 }
b11 9"
0/"
b11 :"
1#
#30000
0#
#30500
1B
1K
1D
1{
1W
1Q
0L
1J
1C
0V
0P
1/
02
0Y
0S
1T
0M
b1010 6
b1010 >
b1010 8"
b101 ;"
1G
b110011 !
b110011 +
b110011 :
b100 :"
b110 9
b110 =
b110 5"
1O
1#
#31000
0#
#31500
0D
1P
0{
0W
0Q
1L
0J
0C
1S
1E
0/
12
10"
0T
1M
1?
1I
0#"
12"
b111 6
b111 >
b111 8"
0K
0%"
1z
0G
0!"
b110 ;"
1A
b11 9
b11 =
b11 5"
0O
b11001 !
b11001 +
b11001 :
b1 .
b1 7
b1 }
b1 9"
0)"
b101 :"
1#
#32000
0#
#32500
1K
1D
1W
1Q
0L
1J
0E
1C
0V
0P
1{
02
0Y
0S
1/
1T
0M
b1011 6
b1011 >
b1011 8"
b111 ;"
1G
b111001 !
b111001 +
b111001 :
b110 :"
b111 9
b111 =
b111 5"
1O
1#
#33000
0#
#33500
07"
0,
0{
0<
1T
1M
0I
1*"
0/
b100 &
b1111 6
b1111 >
b1111 8"
0K
1,"
1"
0G
04"
1("
b11 9
b11 =
b11 5"
0O
0""
b11100 !
b11100 +
b11100 :
b100 .
b100 7
b100 }
b100 9"
1/"
b111 :"
1#
#34000
0#
#34500
1#
#35000
0#
#35500
1v
00"
0B
0*"
0i
0T
0M
0F
0?
1y
0w
1s
0q
0j
0c
1\
01"
0+"
0$"
1{
02"
0D
0,"
0k
b0 6
b0 >
b0 8"
0r
10
11
0"
0z
0@
0("
0g
0n
b1 ;"
0A
b0 9
b0 =
b0 5"
0H
b0 !
b0 +
b0 :
b0 .
b0 7
b0 }
b0 9"
0/"
0o
b0 8
b0 ^
b0 6"
0u
b0 :"
0~
0'"
0."
1#
1'
b0 $
b0 )
b0 5
b0 |
b101 (
#35600
0'
#36000
0#
#36500
1V
1P
1i
1Y
0W
1S
0Q
0J
0C
1<
0v
1r
1k
12
0y
1w
0s
1q
1j
1c
0\
11"
1+"
1$"
0{
1T
1M
00
01
b1100 6
b1100 >
b1100 8"
b10 ;"
1n
1g
b1 :"
1u
b1100 8
b1100 ^
b1100 6"
1o
1#
#37000
0#
#37500
1I
1X
1R
1K
1P
1{
0Y
1W
1Q
1J
1C
0S
1/
02
0M
b1000 6
b1000 >
b1000 8"
17"
1G
b100000 !
b100000 +
b100000 :
1N
1;
b11 ;"
1O
b1100 9
b1100 =
b1100 5"
1U
b10 :"
1#
#38000
0#
#38500
0P
0X
0R
0K
0{
1Y
0W
0Q
1L
0J
0C
0/
12
1F
0B
b1010 6
b1010 >
b1010 8"
0D
b100 ;"
1@
b110000 !
b110000 +
b110000 :
b11 :"
b1110 9
b1110 =
b1110 5"
1H
1#
#39000
0#
#39500
1P
1B
1X
1R
0I
1D
1V
1{
1W
1Q
0L
1J
1C
0Y
1/
02
0T
1M
b110 6
b110 >
b110 8"
0G
b10000 !
b10000 +
b10000 :
b101 ;"
b1010 9
b1010 =
b1010 5"
0O
b100 :"
1#
#40000
0#
#40500
0{
0<
0/
1I
0B
1T
0M
0F
1?
10"
1K
0D
b1001 6
b1001 >
b1001 8"
12"
b110 ;"
1G
0@
b101000 !
b101000 +
b101000 :
1z
b101 :"
1O
0H
b1101 9
b1101 =
b1101 5"
1A
1#
#41000
0#
#41500
1{
1<
1/
b111 ;"
b110 :"
1#
#42000
0#
#42500
0{
0<
0/
b0 &
1*"
1B
1F
0?
00"
1"
1,"
1D
b1010 6
b1010 >
b1010 8"
02"
1("
1@
0z
b111 :"
b110100 !
b110100 +
b110100 :
b100 .
b100 7
b100 }
b100 9"
1/"
1H
b1110 9
b1110 =
b1110 5"
0A
1#
#43000
0#
#43500
1#
#44000
0#
#44500
1v
1#"
1y
0w
1s
0q
0j
0c
1\
01"
0+"
1&"
0$"
1{
1p
0i
0*"
0P
0V
0I
0T
0F
0B
10
11
0"
0r
0k
0,"
0R
0X
0K
b0 6
b0 >
b0 8"
07"
0D
b1 ;"
0n
0g
0("
0N
0;
0G
0@
b0 :"
0u
b0 8
b0 ^
b0 6"
0o
b0 !
b0 +
b0 :
b0 .
b0 7
b0 }
b0 9"
0/"
0U
0O
b0 9
b0 =
b0 5"
0H
1~
1#
1'
b1 $
b1 )
b1 5
b1 |
b110 (
#44600
0'
#45000
0#
#45500
17"
0V
1P
1i
0W
0Q
0J
0C
1<
1,
0Y
1S
0v
1r
1k
0#"
12
0T
1M
0y
1w
0s
1q
1j
1c
0\
11"
1+"
0&"
1$"
0{
b100 6
b100 >
b100 8"
00
01
14"
1g
1n
b10 ;"
b1 !
b1 +
b1 :
b1 .
b1 7
b1 }
b1 9"
1""
1o
b1100 8
b1100 ^
b1100 6"
1u
b1 :"
1#
#46000
0#
#46500
1I
1K
1{
1W
1Q
1J
1C
0V
0P
1/
02
0Y
0S
1T
0M
b1000 6
b1000 >
b1000 8"
b11 ;"
1G
b100001 !
b100001 +
b100001 :
b10 :"
b100 9
b100 =
b100 5"
1O
1#
#47000
0#
#47500
1V
1Y
07"
1P
0{
0W
0Q
0J
0C
1S
1L
0,
0/
12
0B
1T
1M
1F
1I
0D
b1110 6
b1110 >
b1110 8"
0K
1@
0G
04"
b100 ;"
1H
b10 9
b10 =
b10 5"
0O
b10000 !
b10000 +
b10000 :
b0 .
b0 7
b0 }
b0 9"
0""
b11 :"
1#
#48000
0#
#48500
1B
1X
1R
1K
1D
1{
0Y
1W
1Q
0L
1J
1C
1P
1/
02
0S
0M
b1010 6
b1010 >
b1010 8"
17"
b101 ;"
1N
1;
1G
b110000 !
b110000 +
b110000 :
b100 :"
1U
b1110 9
b1110 =
b1110 5"
1O
1#
#49000
0#
#49500
0{
0<
0/
1?
10"
b1011 6
b1011 >
b1011 8"
12"
b111000 !
b111000 +
b111000 :
1z
b110 ;"
b1111 9
b1111 =
b1111 5"
1A
b101 :"
1#
#50000
0#
#50500
1{
1<
1/
b111 ;"
b110 :"
1#
#51000
0#
#51500
0{
0<
1*"
0/
b111100 &
1,"
1"
1("
b111100 !
b111100 +
b111100 :
b100 .
b100 7
b100 }
b100 9"
1/"
b111 :"
1#
#52000
0#
#52500
1#
#53000
0#
#53500
1v
00"
0B
0I
0P
0V
0i
0T
0F
0?
1y
0w
1s
0q
0j
0c
1\
01"
1-"
0+"
0$"
1{
02"
0D
0K
0R
0X
0,"
0k
b0 6
b0 >
b0 8"
07"
0r
10
11
0"
0z
0@
0G
0N
0;
0("
0g
0n
b1 ;"
0A
0H
0O
b0 9
b0 =
b0 5"
0U
b0 !
b0 +
b0 :
b0 .
b0 7
b0 }
b0 9"
0/"
0o
b0 8
b0 ^
b0 6"
0u
b0 :"
0~
1'"
1#
1'
b10 $
b10 )
b10 5
b10 |
b111 (
#53600
0'
#54000
0#
#54500
1V
1P
1i
1#"
1Y
0W
1S
0Q
0J
0C
1<
0v
1r
1k
0*"
1%"
12
0y
1w
0s
1q
1j
1c
0\
11"
0-"
1+"
1$"
0{
1T
1M
00
01
b1100 6
b1100 >
b1100 8"
b10 ;"
1n
1g
1!"
b1 :"
1u
b1100 8
b1100 ^
b1100 6"
1o
b10 !
b10 +
b10 :
b10 .
b10 7
b10 }
b10 9"
1)"
1#
#55000
0#
#55500
1I
1X
1R
1K
1P
1{
0Y
1W
1Q
1J
1C
0S
1/
02
0M
b1000 6
b1000 >
b1000 8"
17"
1G
b100010 !
b100010 +
b100010 :
1N
1;
b11 ;"
1O
b1100 9
b1100 =
b1100 5"
1U
b10 :"
1#
#56000
0#
#56500
0V
0P
0T
0X
0R
0K
07"
0{
0Y
0W
0Q
1L
0J
0C
0/
12
1,
0#"
1F
0B
0%"
b10 6
b10 >
b10 8"
0D
b100 ;"
0!"
14"
1@
b11 :"
0)"
b110001 !
b110001 +
b110001 :
b1 .
b1 7
b1 }
b1 9"
1""
b1110 9
b1110 =
b1110 5"
1H
1#
#57000
0#
#57500
1B
0I
1D
1{
1W
1Q
0L
1J
1C
1/
02
1M
b110 6
b110 >
b110 8"
17"
0G
b10001 !
b10001 +
b10001 :
0N
0;
b101 ;"
0O
b10 9
b10 =
b10 5"
0U
b100 :"
1#
#58000
0#
#58500
0<
1T
0P
07"
0{
1W
0S
1Q
1J
0E
1C
0/
02
0,
0B
0F
1?
10"
0D
b1101 6
b1101 >
b1101 8"
12"
b110 ;"
04"
0@
1z
b101 :"
b1000 !
b1000 +
b1000 :
b0 .
b0 7
b0 }
b0 9"
0""
0H
b1 9
b1 =
b1 5"
1A
1#
#59000
0#
#59500
1{
1<
1/
b111 ;"
b110 :"
1#
#60000
0#
