Tercero/Diseño_Procesadores/Actividad_Previa_Booth/multiplicador_tb.vcd
$date
	Mon Mar  1 12:42:45 2021
$end
$version
	Icarus Verilog
$end
$timescale
	10ps
$end
$scope module multiplicador_tb $end
$var wire 6 ! resultado [5:0] $end
$var wire 1 " Fin $end
$var reg 1 # clk $end
$var reg 3 $ multiplicador [2:0] $end
$var reg 3 % multiplicando [2:0] $end
$var reg 6 & resultado_esperado [5:0] $end
$var reg 1 ' start $end
$var integer 32 ( contador [31:0] $end
$scope module mult $end
$var wire 1 # clk $end
$var wire 3 ) multiplicador [2:0] $end
$var wire 3 * multiplicando [2:0] $end
$var wire 1 ' reset $end
$var wire 3 + salida_q [2:0] $end
$var wire 4 , salida_a [3:0] $end
$var wire 6 - resultado [5:0] $end
$var wire 1 . resta $end
$var wire 1 / qsub1 $end
$var wire 1 0 desplaza $end
$var wire 1 " Fin $end
$var wire 1 1 CargaQ $end
$var wire 1 2 CargaM $end
$var wire 1 3 CargaA $end
$scope module CD $end
$var wire 1 4 carga_qsub1 $end
$var wire 1 # clk $end
$var wire 3 5 entrada_m [2:0] $end
$var wire 3 6 entrada_q [2:0] $end
$var wire 1 ' reset $end
$var wire 4 7 salida_sumador [3:0] $end
$var wire 3 8 salida_q [2:0] $end
$var wire 4 9 salida_m [3:0] $end
$var wire 4 : salida_a [3:0] $end
$var wire 1 . resta $end
$var wire 1 / qsub1 $end
$var wire 1 0 desplaza $end
$var wire 1 1 CargaQ $end
$var wire 1 2 CargaM $end
$var wire 1 3 CargaA $end
$scope module A $end
$var wire 1 ; bit_en_desp $end
$var wire 1 # clk $end
$var wire 1 < enable $end
$var wire 1 ' reset $end
$var wire 4 = salida [3:0] $end
$var wire 4 > entrada [3:0] $end
$var wire 1 0 Desplaza $end
$var wire 1 3 Carga $end
$scope module ff0 $end
$var wire 1 < carga $end
$var wire 1 # clk $end
$var wire 1 ? inp_c $end
$var wire 1 @ inp_d $end
$var wire 1 ' reset $end
$var wire 1 3 selc_d $end
$var wire 1 A salida $end
$var wire 1 B inp $end
$scope module ff0 $end
$var wire 1 < carga $end
$var wire 1 # clk $end
$var wire 1 ' reset $end
$var wire 1 B d $end
$var reg 1 A q $end
$upscope $end
$scope module mux0 $end
$var wire 1 @ a $end
$var wire 1 ? b $end
$var wire 1 B out $end
$var wire 1 C s_n $end
$var wire 1 D sa $end
$var wire 1 E sb $end
$var wire 1 3 s $end
$upscope $end
$upscope $end
$scope module ff1 $end
$var wire 1 < carga $end
$var wire 1 # clk $end
$var wire 1 F inp_c $end
$var wire 1 G inp_d $end
$var wire 1 ' reset $end
$var wire 1 3 selc_d $end
$var wire 1 H salida $end
$var wire 1 I inp $end
$scope module ff0 $end
$var wire 1 < carga $end
$var wire 1 # clk $end
$var wire 1 ' reset $end
$var wire 1 I d $end
$var reg 1 H q $end
$upscope $end
$scope module mux0 $end
$var wire 1 G a $end
$var wire 1 F b $end
$var wire 1 I out $end
$var wire 1 J s_n $end
$var wire 1 K sa $end
$var wire 1 L sb $end
$var wire 1 3 s $end
$upscope $end
$upscope $end
$scope module ff2 $end
$var wire 1 < carga $end
$var wire 1 # clk $end
$var wire 1 M inp_c $end
$var wire 1 N inp_d $end
$var wire 1 ' reset $end
$var wire 1 3 selc_d $end
$var wire 1 O salida $end
$var wire 1 P inp $end
$scope module ff0 $end
$var wire 1 < carga $end
$var wire 1 # clk $end
$var wire 1 ' reset $end
$var wire 1 P d $end
$var reg 1 O q $end
$upscope $end
$scope module mux0 $end
$var wire 1 N a $end
$var wire 1 M b $end
$var wire 1 P out $end
$var wire 1 Q s_n $end
$var wire 1 R sa $end
$var wire 1 S sb $end
$var wire 1 3 s $end
$upscope $end
$upscope $end
$scope module ff3 $end
$var wire 1 < carga $end
$var wire 1 # clk $end
$var wire 1 T inp_c $end
$var wire 1 ; inp_d $end
$var wire 1 ' reset $end
$var wire 1 3 selc_d $end
$var wire 1 U salida $end
$var wire 1 V inp $end
$scope module ff0 $end
$var wire 1 < carga $end
$var wire 1 # clk $end
$var wire 1 ' reset $end
$var wire 1 V d $end
$var reg 1 U q $end
$upscope $end
$scope module mux0 $end
$var wire 1 ; a $end
$var wire 1 T b $end
$var wire 1 V out $end
$var wire 1 W s_n $end
$var wire 1 X sa $end
$var wire 1 Y sb $end
$var wire 1 3 s $end
$upscope $end
$upscope $end
$upscope $end
$scope module M $end
$var wire 1 Z Desplaza $end
$var wire 1 [ bit_en_desp $end
$var wire 1 # clk $end
$var wire 1 \ enable $end
$var wire 4 ] entrada [3:0] $end
$var wire 1 ' reset $end
$var wire 4 ^ salida [3:0] $end
$var wire 1 2 Carga $end
$scope module ff0 $end
$var wire 1 \ carga $end
$var wire 1 # clk $end
$var wire 1 _ inp_c $end
$var wire 1 ` inp_d $end
$var wire 1 ' reset $end
$var wire 1 2 selc_d $end
$var wire 1 a salida $end
$var wire 1 b inp $end
$scope module ff0 $end
$var wire 1 \ carga $end
$var wire 1 # clk $end
$var wire 1 ' reset $end
$var wire 1 b d $end
$var reg 1 a q $end
$upscope $end
$scope module mux0 $end
$var wire 1 ` a $end
$var wire 1 _ b $end
$var wire 1 b out $end
$var wire 1 c s_n $end
$var wire 1 d sa $end
$var wire 1 e sb $end
$var wire 1 2 s $end
$upscope $end
$upscope $end
$scope module ff1 $end
$var wire 1 \ carga $end
$var wire 1 # clk $end
$var wire 1 f inp_c $end
$var wire 1 g inp_d $end
$var wire 1 ' reset $end
$var wire 1 2 selc_d $end
$var wire 1 h salida $end
$var wire 1 i inp $end
$scope module ff0 $end
$var wire 1 \ carga $end
$var wire 1 # clk $end
$var wire 1 ' reset $end
$var wire 1 i d $end
$var reg 1 h q $end
$upscope $end
$scope module mux0 $end
$var wire 1 g a $end
$var wire 1 f b $end
$var wire 1 i out $end
$var wire 1 j s_n $end
$var wire 1 k sa $end
$var wire 1 l sb $end
$var wire 1 2 s $end
$upscope $end
$upscope $end
$scope module ff2 $end
$var wire 1 \ carga $end
$var wire 1 # clk $end
$var wire 1 m inp_c $end
$var wire 1 n inp_d $end
$var wire 1 ' reset $end
$var wire 1 2 selc_d $end
$var wire 1 o salida $end
$var wire 1 p inp $end
$scope module ff0 $end
$var wire 1 \ carga $end
$var wire 1 # clk $end
$var wire 1 ' reset $end
$var wire 1 p d $end
$var reg 1 o q $end
$upscope $end
$scope module mux0 $end
$var wire 1 n a $end
$var wire 1 m b $end
$var wire 1 p out $end
$var wire 1 q s_n $end
$var wire 1 r sa $end
$var wire 1 s sb $end
$var wire 1 2 s $end
$upscope $end
$upscope $end
$scope module ff3 $end
$var wire 1 \ carga $end
$var wire 1 # clk $end
$var wire 1 t inp_c $end
$var wire 1 [ inp_d $end
$var wire 1 ' reset $end
$var wire 1 2 selc_d $end
$var wire 1 u salida $end
$var wire 1 v inp $end
$scope module ff0 $end
$var wire 1 \ carga $end
$var wire 1 # clk $end
$var wire 1 ' reset $end
$var wire 1 v d $end
$var reg 1 u q $end
$upscope $end
$scope module mux0 $end
$var wire 1 [ a $end
$var wire 1 t b $end
$var wire 1 v out $end
$var wire 1 w s_n $end
$var wire 1 x sa $end
$var wire 1 y sb $end
$var wire 1 2 s $end
$upscope $end
$upscope $end
$upscope $end
$scope module Q $end
$var wire 1 z bit_en_desp $end
$var wire 1 # clk $end
$var wire 1 { enable $end
$var wire 3 | entrada [2:0] $end
$var wire 1 ' reset $end
$var wire 3 } salida [2:0] $end
$var wire 1 0 Desplaza $end
$var wire 1 1 Carga $end
$scope module ff0 $end
$var wire 1 { carga $end
$var wire 1 # clk $end
$var wire 1 ~ inp_c $end
$var wire 1 !" inp_d $end
$var wire 1 ' reset $end
$var wire 1 1 selc_d $end
$var wire 1 "" salida $end
$var wire 1 #" inp $end
$scope module ff0 $end
$var wire 1 { carga $end
$var wire 1 # clk $end
$var wire 1 ' reset $end
$var wire 1 #" d $end
$var reg 1 "" q $end
$upscope $end
$scope module mux0 $end
$var wire 1 !" a $end
$var wire 1 ~ b $end
$var wire 1 #" out $end
$var wire 1 $" s_n $end
$var wire 1 %" sa $end
$var wire 1 &" sb $end
$var wire 1 1 s $end
$upscope $end
$upscope $end
$scope module ff1 $end
$var wire 1 { carga $end
$var wire 1 # clk $end
$var wire 1 '" inp_c $end
$var wire 1 (" inp_d $end
$var wire 1 ' reset $end
$var wire 1 1 selc_d $end
$var wire 1 )" salida $end
$var wire 1 *" inp $end
$scope module ff0 $end
$var wire 1 { carga $end
$var wire 1 # clk $end
$var wire 1 ' reset $end
$var wire 1 *" d $end
$var reg 1 )" q $end
$upscope $end
$scope module mux0 $end
$var wire 1 (" a $end
$var wire 1 '" b $end
$var wire 1 *" out $end
$var wire 1 +" s_n $end
$var wire 1 ," sa $end
$var wire 1 -" sb $end
$var wire 1 1 s $end
$upscope $end
$upscope $end
$scope module ff2 $end
$var wire 1 { carga $end
$var wire 1 # clk $end
$var wire 1 ." inp_c $end
$var wire 1 z inp_d $end
$var wire 1 ' reset $end
$var wire 1 1 selc_d $end
$var wire 1 /" salida $end
$var wire 1 0" inp $end
$scope module ff0 $end
$var wire 1 { carga $end
$var wire 1 # clk $end
$var wire 1 ' reset $end
$var wire 1 0" d $end
$var reg 1 /" q $end
$upscope $end
$scope module mux0 $end
$var wire 1 z a $end
$var wire 1 ." b $end
$var wire 1 0" out $end
$var wire 1 1" s_n $end
$var wire 1 2" sa $end
$var wire 1 3" sb $end
$var wire 1 1 s $end
$upscope $end
$upscope $end
$upscope $end
$scope module Qmenos1 $end
$var wire 1 4 carga $end
$var wire 1 # clk $end
$var wire 1 4" d $end
$var wire 1 ' reset $end
$var reg 1 / q $end
$upscope $end
$scope module Sumador $end
$var wire 4 5" A [3:0] $end
$var wire 4 6" B [3:0] $end
$var wire 1 . resta $end
$var wire 1 7" c_out $end
$var wire 4 8" S [3:0] $end
$upscope $end
$upscope $end
$scope module UC $end
$var wire 1 # clk $end
$var wire 3 9" q [2:0] $end
$var wire 1 / qsub1 $end
$var wire 1 ' reset $end
$var wire 1 . Resta $end
$var wire 1 " Fin $end
$var wire 1 0 DesplazaAQ $end
$var wire 1 1 CargaQ $end
$var wire 1 2 CargaM $end
$var wire 1 3 CargaA $end
$var reg 3 :" estado [2:0] $end
$var reg 3 ;" estado_siguiente [2:0] $end
$upscope $end
$upscope $end
$upscope $end
$enddefinitions $end
#0
$dumpvars
b1 ;"
b0 :"
b0 9"
b0 8"
07"
b0 6"
b0 5"
04"
13"
02"
01"
10"
0/"
1."
0-"
0,"
0+"
0*"
0)"
0("
0'"
0&"
0%"
0$"
0#"
0""
0!"
0~
b0 }
b100 |
1{
0z
1y
0x
0w
1v
0u
1t
1s
0r
0q
1p
0o
0n
1m
0l
0k
0j
0i
0h
0g
0f
0e
0d
0c
0b
0a
0`
0_
b0 ^
b1100 ]
1\
0[
0Z
0Y
0X
1W
0V
0U
0T
0S
0R
1Q
0P
0O
0N
0M
0L
0K
1J
0I
0H
0G
0F
0E
0D
1C
0B
0A
0@
0?
b0 >
b0 =
0<
0;
b0 :
b0 9
b0 8
b0 7
b100 6
b100 5
14
03
12
11
00
0/
0.
b0 -
b0 ,
b0 +
b100 *
b100 )
b1 (
1'
bx &
b100 %
b100 $
0#
0"
b0 !
$end
#100
0'
#500
1*"
1i
00"
1,"
0v
1r
1k
03"
11"
1+"
1$"
0{
04
0y
1w
0s
1q
1j
1c
0\
1T
1M
01
02
b1100 7
b1100 >
b1100 8"
b10 ;"
1n
1g
1("
b100 !
b100 -
b1 :"
1u
b1100 9
b1100 ^
b1100 6"
1o
b100 +
b100 8
b100 }
b100 9"
1/"
1#
#1000
0#
#1500
1{
1<
14
10
b11 ;"
b10 :"
1#
#2000
0#
#2500
0{
0<
04
00
0*"
1#"
0,"
1%"
b100 ;"
0("
1!"
b10 !
b10 -
b11 :"
0/"
b10 +
b10 8
b10 }
b10 9"
1)"
1#
#3000
0#
#3500
1{
1<
14
10
b101 ;"
b100 :"
1#
#4000
0#
#4500
1P
0W
1S
0Q
0J
0C
0T
13
b100 7
b100 >
b100 8"
17"
0{
1<
04
00
1.
0#"
0%"
b110 ;"
0!"
14"
b1 !
b1 -
b101 :"
0)"
b1 +
b1 8
b1 }
b1 9"
1""
1#
#5000
0#
#5500
1I
1K
0P
1W
1Q
1J
1C
0S
1{
14
03
1T
0M
10
b1000 7
b1000 >
b1000 8"
1G
b100001 !
b100001 -
b111 ;"
b100 ,
b100 :
b100 =
b100 5"
1O
b110 :"
1#
#6000
0#
#6500
07"
0{
0<
04
00
b10000 &
0.
0I
1T
1M
1F
1B
1"
0K
b1110 7
b1110 >
b1110 8"
1D
04"
0G
1@
b10000 !
b10000 -
b111 :"
1/
b0 +
b0 8
b0 }
b0 9"
0""
0O
b10 ,
b10 :
b10 =
b10 5"
1H
1#
#7000
0#
#7500
1#
#8000
0#
#8500
10"
1v
1b
13"
01"
0+"
0$"
1{
14
1y
0w
1s
0q
0j
1e
0c
1\
1p
0i
0T
0M
0F
0B
11
12
0"
0r
0k
b0 7
b0 >
b0 8"
0D
b1 ;"
0n
0g
0@
b0 !
b0 -
b0 :"
0/
0u
b0 9
b0 ^
b0 6"
0o
b0 ,
b0 :
b0 =
b0 5"
0H
1_
1#
1'
b1101 ]
b101 $
b101 *
b101 5
b10 (
#8600
0'
#9000
0#
#9500
1*"
1i
00"
1,"
0v
1r
1k
0b
1T
1M
1?
03"
11"
1+"
1$"
0{
04
0y
1w
0s
1q
1j
0e
1c
0\
b1101 7
b1101 >
b1101 8"
01
02
1("
b100 !
b100 -
1g
1n
b10 ;"
b100 +
b100 8
b100 }
b100 9"
1/"
1a
1o
b1101 9
b1101 ^
b1101 6"
1u
b1 :"
1#
#10000
0#
#10500
1{
1<
14
10
b11 ;"
b10 :"
1#
#11000
0#
#11500
0{
0<
04
00
1#"
0*"
1%"
0,"
1!"
0("
b10 !
b10 -
b100 ;"
1)"
b10 +
b10 8
b10 }
b10 9"
0/"
b11 :"
1#
#12000
0#
#12500
1{
1<
14
10
b101 ;"
b100 :"
1#
#13000
0#
#13500
1I
1B
0W
0Q
1L
0J
1E
0C
0T
0M
1F
13
b11 7
b11 >
b11 8"
17"
0{
1<
04
1.
00
0#"
0%"
14"
0!"
b1 !
b1 -
b110 ;"
1""
b1 +
b1 8
b1 }
b1 9"
0)"
b101 :"
1#
#14000
0#
#14500
0I
1D
1W
1Q
0L
1J
1C
0P
1B
1{
14
03
0S
0E
10
1M
0?
10"
b110 7
b110 >
b110 8"
12"
b111 ;"
1@
1z
b11001 !
b11001 -
b110 :"
1H
b11 ,
b11 :
b11 =
b11 5"
1A
1#
#15000
0#
#15500
1T
07"
0{
0<
04
1F
0B
1*"
0.
00
b1100 &
b1110 7
b1110 >
b1110 8"
0D
1,"
1"
0@
04"
1("
b1100 !
b1100 -
b1 ,
b1 :
b1 =
b1 5"
0H
0""
b100 +
b100 8
b100 }
b100 9"
1/"
1/
b111 :"
1#
#16000
0#
#16500
1#
#17000
0#
#17500
1v
0*"
0T
0M
0F
13"
01"
0+"
0$"
1{
14
1y
0w
1s
0q
1l
0j
0c
1\
02"
0,"
0k
b0 7
b0 >
b0 8"
0r
11
12
0"
0z
0("
b0 !
b0 -
0g
0n
b1 ;"
b0 ,
b0 :
b0 =
b0 5"
0A
b0 +
b0 8
b0 }
b0 9"
0/"
0a
0o
b0 9
b0 ^
b0 6"
0u
0/
b0 :"
0_
1f
1#
1'
b1110 ]
b110 $
b110 *
b110 5
b11 (
#17600
0'
#18000
0#
#18500
1*"
1b
00"
1,"
0v
1r
1k
1d
03"
11"
1+"
1$"
0{
04
0y
1w
0s
1q
0l
1j
1c
0\
1T
1M
1F
01
02
b1110 7
b1110 >
b1110 8"
b10 ;"
1n
1g
1`
1("
b100 !
b100 -
b1 :"
1u
1o
b1110 9
b1110 ^
b1110 6"
1h
b100 +
b100 8
b100 }
b100 9"
1/"
1#
#19000
0#
#19500
1{
1<
14
10
b11 ;"
b10 :"
1#
#20000
0#
#20500
0{
0<
04
00
0*"
1#"
0,"
1%"
b100 ;"
0("
1!"
b10 !
b10 -
b11 :"
0/"
b10 +
b10 8
b10 }
b10 9"
1)"
1#
#21000
0#
#21500
1{
1<
14
10
b101 ;"
b100 :"
1#
#22000
0#
#22500
1I
0W
0Q
1L
0J
0C
0T
0M
13
b10 7
b10 >
b10 8"
17"
0{
1<
04
00
1.
0#"
0%"
b110 ;"
0!"
14"
b1 !
b1 -
b101 :"
0)"
b1 +
b1 8
b1 }
b1 9"
1""
1#
#23000
0#
#23500
1B
1D
0I
1W
1Q
1J
1C
0L
1{
14
03
1M
0F
10
b100 7
b100 >
b100 8"
1@
b10001 !
b10001 -
b111 ;"
b10 ,
b10 :
b10 =
b10 5"
1H
b110 :"
1#
#24000
0#
#24500
1T
07"
0{
0<
04
00
b1000 &
0.
0B
1M
1F
1?
10"
1"
0D
b1111 7
b1111 >
b1111 8"
12"
04"
0@
1z
b1000 !
b1000 -
b111 :"
1/
b0 +
b0 8
b0 }
b0 9"
0""
0H
b1 ,
b1 :
b1 =
b1 5"
1A
1#
#25000
0#
#25500
1#
#26000
0#
#26500
1v
13"
01"
0+"
0$"
1{
14
1y
0w
1s
0q
1l
0j
1e
0c
1\
1p
1i
1b
0T
0M
0F
0?
10"
11
12
0"
0r
0k
0d
b0 7
b0 >
b0 8"
02"
b1 ;"
0n
0g
0`
0z
b0 !
b0 -
b0 :"
0/
0u
0o
b0 9
b0 ^
b0 6"
0h
b0 ,
b0 :
b0 =
b0 5"
0A
1_
1#
1'
b1111 ]
b111 $
b111 *
b111 5
b100 (
#26600
0'
#27000
0#
#27500
1*"
00"
1,"
0v
1r
1k
1d
1T
1M
1F
1?
03"
11"
1+"
1$"
0{
04
0y
1w
0s
1q
0l
1j
0e
1c
0\
b1111 7
b1111 >
b1111 8"
01
02
1("
b100 !
b100 -
1`
1g
1n
b10 ;"
b100 +
b100 8
b100 }
b100 9"
1/"
1a
1h
1o
b1111 9
b1111 ^
b1111 6"
1u
b1 :"
1#
#28000
0#
#28500
1{
1<
14
10
b11 ;"
b10 :"
1#
#29000
0#
#29500
0{
0<
04
00
1#"
0*"
1%"
0,"
1!"
0("
b10 !
b10 -
b100 ;"
1)"
b10 +
b10 8
b10 }
b10 9"
0/"
b11 :"
1#
#30000
0#
#30500
1{
1<
14
10
b101 ;"
b100 :"
1#
#31000
0#
#31500
1B
0W
0Q
0J
1E
0C
0T
0M
0F
13
b1 7
b1 >
b1 8"
17"
0{
1<
04
1.
00
0#"
0%"
14"
0!"
b1 !
b1 -
b110 ;"
1""
b1 +
b1 8
b1 }
b1 9"
0)"
b101 :"
1#
#32000
0#
#32500
1W
1Q
1J
1C
0I
0B
1{
14
03
0L
0E
10
1F
0?
10"
b10 7
b10 >
b10 8"
12"
b111 ;"
1z
b1001 !
b1001 -
b110 :"
b1 ,
b1 :
b1 =
b1 5"
1A
1#
#33000
0#
#33500
1T
1M
07"
0{
0<
04
1F
1?
00"
1*"
0.
00
b100 &
b1111 7
b1111 >
b1111 8"
02"
1,"
1"
0z
04"
1("
b100 !
b100 -
b0 ,
b0 :
b0 =
b0 5"
0A
0""
b100 +
b100 8
b100 }
b100 9"
1/"
1/
b111 :"
1#
#34000
0#
#34500
1#
#35000
0#
#35500
10"
0*"
0b
0i
0T
0M
0F
0?
0p
13"
01"
0+"
0$"
1{
14
0w
0q
0j
0c
1\
0,"
0d
0k
b0 7
b0 >
b0 8"
0r
11
12
0"
0("
b0 !
b0 -
0`
0g
0n
b1 ;"
b0 +
b0 8
b0 }
b0 9"
0/"
0a
0h
0o
b0 9
b0 ^
b0 6"
0u
0/
b0 :"
0t
0_
0f
0m
1#
1'
b0 ]
b0 $
b0 *
b0 5
b101 (
#35600
0'
#36000
0#
#36500
1*"
00"
1,"
03"
11"
1+"
1$"
0{
04
1w
1q
1j
1c
0\
01
02
b10 ;"
1("
b100 !
b100 -
b1 :"
b100 +
b100 8
b100 }
b100 9"
1/"
1#
#37000
0#
#37500
1{
1<
14
10
b11 ;"
b10 :"
1#
#38000
0#
#38500
0{
0<
04
00
0*"
1#"
0,"
1%"
b100 ;"
0("
1!"
b10 !
b10 -
b11 :"
0/"
b10 +
b10 8
b10 }
b10 9"
1)"
1#
#39000
0#
#39500
1{
1<
14
10
b101 ;"
b100 :"
1#
#40000
0#
#40500
0W
0Q
0J
0C
13
0{
1<
04
00
1.
0#"
0%"
b110 ;"
0!"
14"
b1 !
b1 -
b101 :"
0)"
b1 +
b1 8
b1 }
b1 9"
1""
1#
#41000
0#
#41500
1W
1Q
1J
1C
1{
14
03
10
b111 ;"
b110 :"
1#
#42000
0#
#42500
0{
0<
04
00
b0 &
0.
1"
04"
b0 !
b0 -
b111 :"
1/
b0 +
b0 8
b0 }
b0 9"
0""
1#
#43000
0#
#43500
1#
#44000
0#
#44500
10"
1b
13"
01"
0+"
0$"
1{
14
0w
0q
0j
1e
0c
1\
11
12
0"
b1 ;"
b0 :"
0/
1_
1#
1'
b1 ]
b1 $
b1 *
b1 5
b110 (
#44600
0'
#45000
0#
#45500
1*"
00"
1,"
0b
1?
03"
11"
1+"
1$"
0{
04
1w
1q
1j
0e
1c
0\
b1 7
b1 >
b1 8"
01
02
1("
b100 !
b100 -
b10 ;"
b100 +
b100 8
b100 }
b100 9"
1/"
b1 9
b1 ^
b1 6"
1a
b1 :"
1#
#46000
0#
#46500
1{
1<
14
10
b11 ;"
b10 :"
1#
#47000
0#
#47500
0{
0<
04
00
1#"
0*"
1%"
0,"
1!"
0("
b10 !
b10 -
b100 ;"
1)"
b10 +
b10 8
b10 }
b10 9"
0/"
b11 :"
1#
#48000
0#
#48500
1{
1<
14
10
b101 ;"
b100 :"
1#
#49000
0#
#49500
1V
1P
1I
1B
1Y
0W
1S
0Q
1L
0J
1E
0C
1T
1M
1F
13
b1111 7
b1111 >
b1111 8"
17"
0{
1<
04
1.
00
0#"
0%"
14"
0!"
b1 !
b1 -
b110 ;"
1""
b1 +
b1 8
b1 }
b1 9"
0)"
b101 :"
1#
#50000
0#
#50500
1X
1R
1K
1D
0Y
1W
0S
1Q
0L
1J
1C
1B
1{
14
03
0E
10
0?
10"
b1110 7
b1110 >
b1110 8"
07"
12"
b111 ;"
1N
1;
1G
1@
1z
b111001 !
b111001 -
b110 :"
1U
1O
1H
b1111 ,
b1111 :
b1111 =
b1111 5"
1A
1#
#51000
0#
#51500
0T
0M
0F
b0 7
b0 >
b0 8"
17"
0{
0<
04
1*"
0.
00
b111100 &
1,"
1"
04"
1("
b111100 !
b111100 -
0""
b100 +
b100 8
b100 }
b100 9"
1/"
1/
b111 :"
1#
#52000
0#
#52500
1#
#53000
0#
#53500
1i
0B
0I
0P
0V
0*"
13"
01"
0+"
0$"
1{
14
0w
0q
1l
0j
0c
1\
02"
0D
0K
0R
0X
0,"
07"
11
12
0"
0z
0@
0G
0N
0;
0("
b0 !
b0 -
b1 ;"
0A
0H
0O
b0 ,
b0 :
b0 =
b0 5"
0U
b0 +
b0 8
b0 }
b0 9"
0/"
b0 9
b0 ^
b0 6"
0a
0/
b0 :"
0_
1f
1#
1'
b10 ]
b10 $
b10 *
b10 5
b111 (
#53600
0'
#54000
0#
#54500
1*"
1b
00"
1,"
0i
1d
03"
11"
1+"
1$"
0{
04
1w
1q
0l
1j
1c
0\
1F
01
02
b10 7
b10 >
b10 8"
b10 ;"
1`
1("
b100 !
b100 -
b1 :"
b10 9
b10 ^
b10 6"
1h
b100 +
b100 8
b100 }
b100 9"
1/"
1#
#55000
0#
#55500
1{
1<
14
10
b11 ;"
b10 :"
1#
#56000
0#
#56500
0{
0<
04
00
0*"
1#"
0,"
1%"
b100 ;"
0("
1!"
b10 !
b10 -
b11 :"
0/"
b10 +
b10 8
b10 }
b10 9"
1)"
1#
#57000
0#
#57500
1{
1<
14
10
b101 ;"
b100 :"
1#
#58000
0#
#58500
1V
1P
1I
1Y
0W
1S
0Q
1L
0J
0C
1T
1M
13
b1110 7
b1110 >
b1110 8"
17"
0{
1<
04
00
1.
0#"
0%"
b110 ;"
0!"
14"
b1 !
b1 -
b101 :"
0)"
b1 +
b1 8
b1 }
b1 9"
1""
1#
#59000
0#
#59500
1B
1X
1R
1K
1D
1I
0Y
1W
0S
1Q
1J
1C
0L
1{
14
03
0F
10
b1100 7
b1100 >
b1100 8"
07"
1@
1G
b110001 !
b110001 -
1N
1;
b111 ;"
1H
1O
b1110 ,
b1110 :
b1110 =
b1110 5"
1U
b110 :"
1#
#60000
0#
#60500
0T
0M
17"
0{
0<
04
00
b111000 &
0.
1?
10"
1"
b1 7
b1 >
b1 8"
12"
04"
1z
b111000 !
b111000 -
b111 :"
1/
b0 +
b0 8
b0 }
b0 9"
0""
b1111 ,
b1111 :
b1111 =
b1111 5"
1A
1#
#61000
0#
#61500
1#
#62000
0#
#62500
1i
13"
01"
0+"
0$"
1{
14
0w
0q
1l
0j
1e
0c
1\
1b
0P
0V
0I
0B
0?
10"
11
12
0"
0d
0R
0X
0K
0D
b0 7
b0 >
b0 8"
07"
02"
b1 ;"
0`
0N
0;
0G
0@
0z
b0 !
b0 -
b0 :"
0/
b0 9
b0 ^
b0 6"
0h
0U
0O
0H
b0 ,
b0 :
b0 =
b0 5"
0A
1_
1#
1'
b11 ]
b11 $
b11 *
b11 5
b1000 (
#62600
0'
#63000
0#
#63500
1*"
00"
1,"
0i
1d
1F
1?
03"
11"
1+"
1$"
0{
04
1w
1q
0l
1j
0e
1c
0\
b11 7
b11 >
b11 8"
01
02
1("
b100 !
b100 -
1`
b10 ;"
b100 +
b100 8
b100 }
b100 9"
1/"
1a
b11 9
b11 ^
b11 6"
1h
b1 :"
1#
#64000
0#
#64500
1{
1<
14
10
b11 ;"
b10 :"
1#
#65000
0#
#65500
0{
0<
04
00
1#"
0*"
1%"
0,"
1!"
0("
b10 !
b10 -
b100 ;"
1)"
b10 +
b10 8
b10 }
b10 9"
0/"
b11 :"
1#
#66000
0#
#66500
1{
1<
14
10
b101 ;"
b100 :"
1#
#67000
0#
#67500
1V
1P
1B
1Y
0W
1S
0Q
0J
1E
0C
1T
1M
0F
13
b1101 7
b1101 >
b1101 8"
17"
0{
1<
04
1.
00
0#"
0%"
14"
0!"
b1 !
b1 -
b110 ;"
1""
b1 +
b1 8
b1 }
b1 9"
0)"
b101 :"
1#
#68000
0#
#68500
1X
1R
1K
0Y
1W
1Q
1J
1C
1P
1I
0B
1{
14
03
0S
0L
0E
10
0M
1F
0?
10"
b1010 7
b1010 >
b1010 8"
07"
12"
b111 ;"
1N
1;
1G
1z
b101001 !
b101001 -
b110 :"
1U
1O
b1101 ,
b1101 :
b1101 =
b1101 5"
1A
1#
#69000
0#
#69500
0T
0F
17"
0{
0<
04
00"
1?
1B
1*"
0.
00
b110100 &
02"
b1 7
b1 >
b1 8"
1D
1,"
1"
0z
1@
04"
1("
b110100 !
b110100 -
0A
b1110 ,
b1110 :
b1110 =
b1110 5"
1H
0""
b100 +
b100 8
b100 }
b100 9"
1/"
1/
b111 :"
1#
#70000
0#
#70500
1#
#71000
0#
#71500
10"
1#"
1v
1p
0B
0I
0P
0V
0*"
0?
0b
13"
01"
0+"
1&"
0$"
1{
14
1y
0w
1s
0q
0j
0c
1\
0D
0K
0R
0X
0,"
b0 7
b0 >
b0 8"
07"
0d
11
12
0"
0@
0G
0N
0;
0("
b0 !
b0 -
0`
b1 ;"
0H
0O
b0 ,
b0 :
b0 =
b0 5"
0U
b0 +
b0 8
b0 }
b0 9"
0/"
0a
b0 9
b0 ^
b0 6"
0h
0/
b0 :"
1t
1~
0_
0f
1m
1#
1'
b101 %
b101 )
b101 6
b101 |
b1100 ]
b100 $
b100 *
b100 5
b1001 (
#71600
0'
#72000
0#
#72500
0V
1P
0Y
0W
1S
0Q
0J
0C
1<
17"
1*"
1i
13
00"
1,"
0#"
0v
1r
1k
1.
03"
11"
1+"
0&"
1$"
0{
04
0y
1w
0s
1q
1j
1c
0\
0T
1M
01
02
b100 7
b100 >
b100 8"
b10 ;"
1n
1g
1("
14"
b101 !
b101 -
b1 :"
1u
b1100 9
b1100 ^
b1100 6"
1o
1/"
b101 +
b101 8
b101 }
b101 9"
1""
1#
#73000
0#
#73500
1I
1K
1W
1Q
1J
1C
0V
0P
1{
14
03
0Y
0S
10
1T
0M
b1000 7
b1000 >
b1000 8"
1G
b100101 !
b100101 -
b11 ;"
b100 ,
b100 :
b100 =
b100 5"
1O
b10 :"
1#
#74000
0#
#74500
1V
1P
1Y
0W
1S
0Q
1L
0J
0C
0{
04
13
07"
00
0.
0*"
1#"
1I
1T
1M
1F
0B
0,"
1%"
0K
b1110 7
b1110 >
b1110 8"
0D
b100 ;"
0("
1!"
04"
0G
1@
b10010 !
b10010 -
b11 :"
1/
0/"
1)"
b10 +
b10 8
b10 }
b10 9"
0""
0O
b10 ,
b10 :
b10 =
b10 5"
1H
1#
#75000
0#
#75500
1B
1X
1R
1K
1D
0Y
1W
1Q
0L
1J
1C
1P
1{
14
03
0S
10
0M
b1010 7
b1010 >
b1010 8"
17"
1G
b110010 !
b110010 -
1N
1;
b101 ;"
1O
b1110 ,
b1110 :
b1110 =
b1110 5"
1U
b100 :"
1#
#76000
0#
#76500
0V
0P
0X
0R
0K
0D
0T
0{
04
0Y
0W
0Q
1L
0J
1E
0C
07"
00
13
1.
0#"
1?
10"
0%"
b11 7
b11 >
b11 8"
12"
b110 ;"
0!"
14"
1z
b111001 !
b111001 -
b101 :"
0/
0)"
b1 +
b1 8
b1 }
b1 9"
1""
b1111 ,
b1111 :
b1111 =
b1111 5"
1A
1#
#77000
0#
